{
    "graph_datas":"data\\graph_data12.json",
    "adjust_edges":[2],
    "min_delta_r":[-1.8],
    "max_delta_r":[2],
    "popsize":20,
    "max_generations":50,
    "cross_rate":0.75,
    "mutation_rate":0.015,
    "max_evaluations":1000,
    "neighborhood_size":5,
    "minimum_fitness":0.1,
    "terminator":1,
    "stat_file":"out\\stat.csv",
    "ind_file":"out\\ind.csv"
}