3	83	2	0.001412632	26.8931	1.02167
5	2	4	0.000768963	39.2239	1.18306
7	4	6	0.003607193	53.71	10.4059
11	6	10	0.025319681	45.053	51.3932
19	16	18	0.004268888	41.8277	7.46866
21	18	20	0.052423752	12.604	8.32808
23	20	22	0.002896649	13.9989	0.567654
25	24	22	0.002365178	1.03479	0.00253261
27	26	24	0.057757621	17.1737	17.0348
29	28	26	0.016696505	17.1737	4.9244
35	34	28	0.086261095	17.1737	25.4415
39	36	707	0.262837915	7.52324	14.8764
41	40	4	0.019008103	14.486	3.98874
44	42	43	0.004696081	38.2766	6.88022
46	43	45	0.007440156	46.9336	16.3889
50	47	49	0.021086308	43.9882	40.8012
52	49	51	0.001222688	39.5626	1.91375
54	51	53	0.001360719	0.557836	0.00042343
60	53	59	3.948097637	2.56022	25.8787
68	6	43	0.021610771	8.657	1.61959
74	73	42	0.000476252	48.8938	1.13853
76	73	75	0.002354395	26.8931	1.70279
84	75	83	0.002749244	26.8931	1.98836
89	88	2	0.019051162	12.3309	2.89675
90	88	40	0.007257587	3.86884	0.108631
91	42	40	0.006955205	10.6172	0.784025
92	73	88	0.006912045	16.1997	1.81393
97	24	98	0.029281311	16.1389	7.62673
101	98	100	0.008150423	30.7267	7.69506
103	100	102	0.010506161	52.2584	28.6917
105	102	104	0.007987728	22.3939	4.00574
107	104	106	0.009883091	12.2731	1.48868
109	106	112	0.010227867	8.77267	0.787134
115	112	118	0.577817083	12.2731	87.036
121	118	120	0.085166876	12.2731	12.8286
123	120	122	0.009418791	52.2816	25.745
126	171	2559	0.010695019	13.3814	1.91507
138	133	137	0.016567568	22.4199	8.32772
140	137	139	0.021310572	22.4199	10.7118
142	139	2211	0.001565978	60.2279	5.68043
144	141	143	0.002637439	82.4895	17.9465
146	143	1304	0.005872025	82.4895	39.9563
148	145	147	0.008740337	85.2923	63.584
149	147	120	0.005067352	40.0086	8.11125
152	171	133	0.032202898	9.03845	2.63077
154	104	155	0.008699217	10.1208	0.891066
158	155	157	0.008257904	10.1208	0.845862
160	157	159	0.10339782	10.1208	10.5911
162	159	161	0.070118017	10.1208	7.18223
164	161	163	0.038866025	10.1208	3.98107
166	163	165	0.024771332	12.2175	3.69755
168	165	167	0.026935838	12.2175	4.02064
170	167	169	0.012914842	8.68358	0.973838
172	169	171	0.026931758	22.4199	13.5373
183	180	182	0.028274575	48.3081	65.9836
185	182	184	0.03782409	15.833	9.48189
187	184	186	0.006670074	15.833	1.67208
189	186	188	0.039093215	13.7363	7.37634
190	188	169	0.007435265	13.7363	1.40293
191	167	1296	0.039244646	3.53389	0.490102
192	186	163	0.018222348	2.09667	0.0801059
194	45	199	0.04556086	2.02813	0.187406
202	199	201	0.165333949	2.02813	0.68007
207	205	332	0.005338187	51.863	14.3585
209	332	1212	0.00547659	54.6159	16.3361
211	208	210	0.027783003	37.1209	38.2839
213	210	212	0.023473856	34.9781	28.7195
215	212	214	0.002316602	32.0337	2.3772
217	214	201	0.020136666	32.0337	20.6634
219	201	218	0.00247369	34.0618	2.86999
221	218	220	0.004059616	59.6316	14.4357
226	223	225	0.139282543	23.3727	76.0877
228	227	225	0.015084392	3.88997	0.228255
230	227	229	0.007406556	23.4042	4.05699
232	229	231	0.009955003	15.0671	2.25996
234	231	2527	0.092518364	21.1127	41.2397
240	237	239	0.008766818	29.4498	7.60338
242	239	241	0.007917205	31.2231	7.71834
245	243	244	0.006880836	13.8404	1.31807
247	244	267	0.045672673	36.7385	61.6452
249	267	248	0.011201769	6.58284	0.485415
251	248	250	0.031880363	2.48955	0.19759
253	250	252	0.011509989	32.6452	12.2663
255	252	254	0.012529882	36.7385	16.9118
257	254	256	0.006752362	36.7385	9.11378
259	256	258	0.040772387	36.7385	55.0312
261	258	260	0.003733175	39.4177	5.80044
263	260	262	0.005277936	39.4177	8.20062
265	264	262	0.004099318	1.59348	0.0104089
266	244	258	0.03046539	2.6792	0.218684
270	267	269	0.029634705	30.1557	26.9488
288	269	287	0.013246735	3.038	0.12226
290	287	289	0.006719896	3.038	0.0620209
294	292	293	0.013076109	113.16	167.442
300	298	299	0.084794925	20.4826	35.5746
302	299	301	0.059586404	22.6254	30.5028
304	301	303	0.009927951	25.5698	6.49104
305	212	301	0.537495391	2.94439	4.65978
306	210	299	0.624522743	2.14278	2.8675
308	307	205	0.134669747	48.2848	313.972
310	303	309	0.012463593	25.5698	8.14888
311	309	218	0.010097112	25.5698	6.60164
313	122	312	0.116592522	52.2816	318.69
315	312	314	0.070780872	49.5287	173.632
317	314	316	0.018714218	49.5287	45.9077
319	316	318	0.008003164	42.5919	14.5183
320	318	292	0.004652985	49.5287	11.4142
326	94	220	0.005980863	4	0.0956938
328	220	327	0.002590553	63.6316	10.4891
329	327	292	0.002249764	63.6316	9.10925
331	312	330	0.020182381	2.75296	0.152958
333	330	332	1.164662359	2.75296	8.82673
337	208	298	0.01326751	20.4826	5.56621
344	248	343	0.178103008	4.09329	2.98412
358	356	357	0.008204749	79.9106	52.3931
360	357	359	0.006454986	48.8245	15.3876
362	359	361	0.002812947	54.1375	8.24438
364	361	363	0.002837067	54.1375	8.31507
366	363	365	0.009382222	69.5188	45.343
368	365	367	0.01885944	69.5188	91.1451
370	367	369	0.009292931	51.4693	24.6178
372	369	1332	0.002245372	29.7445	1.98656
374	371	373	0.001396566	14.8814	0.309278
376	373	1008	0.147015616	14.8814	32.5575
378	1008	377	0.033608995	14.3508	6.92162
380	377	379	0.056465303	25.1802	35.8014
382	379	381	0.008807779	17.2087	2.60833
390	387	528	0.010064866	18.1553	3.31753
393	528	244	0.001870962	25.5773	1.22398
395	49	2266	0.008558987	4.42559	0.167635
400	399	205	0.090972835	3.57812	1.16472
402	401	47	0.028886309	2.07036	0.123818
403	10	401	0.009519978	5.64848	0.303738
404	401	399	0.010988802	3.57812	0.140689
408	407	177	0.021928553	23.0213	11.6217
409	51	407	0.001298319	39.0048	1.97523
424	102	423	0.017638979	29.8645	15.732
430	427	429	0.002412155	27.7216	1.85371
432	429	431	0.014166317	29.1975	12.0767
434	431	1300	0.003888937	37.3978	5.43905
438	453	431	0.207761925	8.20029	13.9709
440	453	439	0.100213896	21.9407	48.2424
442	439	441	0.035237415	10.958	4.23123
444	439	433	0.038911223	10.9827	4.69346
455	182	453	0.022949947	32.4752	24.2039
459	458	180	0.018107661	9.30332	1.56725
474	458	59	0.016808933	19.9204	6.67016
479	22	1595	0.025661498	15.0337	5.79981
480	1595	98	0.008535557	14.5878	1.8164
486	427	484	0.013951223	2.1429	0.0640643
488	59	20	0.003322962	1.3949	0.00646564
493	732	492	0.011789489	12.0925	1.72396
495	492	494	0.022722032	12.0925	3.32261
496	494	34	0.029027634	13.6768	5.42976
499	497	498	0.017188416	1.63437	0.0459131
517	516	498	0.00602857	1.66559	0.0167244
521	519	520	0.067681382	9.59376	6.22941
525	520	524	0.025910721	27.1643	19.1195
526	524	264	0.011936186	22.8559	6.23537
527	264	243	0.00809762	21.2624	3.66085
529	243	528	0.001727038	7.42204	0.0951368
533	497	532	0.007155195	29.5331	6.24079
535	532	534	0.005441287	46.4794	11.755
541	538	540	0.013512139	35.4557	16.9862
545	540	544	0.001159536	35.4557	1.45766
547	544	546	0.005277076	17.5347	1.62252
549	546	548	0.075971676	35.4557	95.5045
551	548	550	0.035826284	10.773	4.15791
553	550	552	0.009654906	7.76172	0.581653
555	552	554	0.006815035	7.76172	0.410567
557	554	1141	0.011031235	7.76172	0.664569
559	556	558	0.005971878	42.7183	10.8978
561	558	560	0.028044359	44.2238	54.8476
563	560	562	0.008261048	44.2238	16.1565
565	562	2478	0.026517201	61.0738	98.9094
567	564	566	0.01131101	93.425	98.7251
569	566	570	0.002329453	100.197	23.3864
573	570	1077	0.001286984	100.197	12.9206
575	574	572	0.014015426	34.7501	16.9246
577	1997	574	0.039086221	31.2463	38.1611
580	578	579	0.023164273	16.9254	6.63585
582	579	581	0.016511725	16.9254	4.7301
584	581	583	0.083757315	12.6044	13.3066
586	585	36	0.006201011	1.60859	0.0160455
588	585	494	0.027062281	1.5843	0.0679265
593	592	363	0.002652284	15.3813	0.627489
597	596	592	0.016949178	34.1727	19.7928
599	598	596	0.006954482	16.4266	1.87655
601	600	598	0.005861676	20.2163	2.39566
603	602	600	0.01841942	38.0488	26.666
605	602	604	0.028585621	17.5964	8.85106
607	606	604	0.004005538	52.5868	11.0768
608	581	606	0.019566113	4.32099	0.365318
615	516	497	0.006156784	31.1675	5.98078
617	618	516	0.00481729	57.9802	16.1943
621	732	618	0.008810835	20.2785	3.62317
630	635	498	0.02282454	1.47665	0.0497688
637	732	635	0.007358571	16.8738	2.09517
639	635	618	0.006118307	15.3972	1.45049
660	659	534	0.007810427	44.023	15.1368
662	661	659	0.005104115	60.9693	18.9733
663	592	661	0.003109057	18.7914	1.09786
670	659	532	0.012650069	16.9463	3.63281
673	902	672	0.004709768	57.3192	15.4739
675	672	676	0.012904343	57.3192	42.3971
679	676	678	0.015810981	60.9247	58.6875
687	684	688	0.005176493	63.9151	21.1467
691	688	690	0.01167845	88.8387	92.17
692	690	572	0.001676316	82.0671	11.29
693	690	566	0.004259975	6.77156	0.195337
697	498	696	0.633130396	31.2463	618.145
700	696	1997	0.016705498	31.2463	16.3101
702	701	498	0.09215437	26.4697	64.5675
704	703	701	0.028817446	26.4697	20.1908
713	712	661	0.008251362	42.1778	14.6789
715	714	712	0.006030546	28.8379	5.01515
717	716	714	0.002487247	27.6373	1.89981
719	718	2089	0.006454979	22.057	3.14042
733	730	732	0.007929989	49.2449	19.2307
742	604	730	0.003086761	70.1832	15.2044
744	743	356	0.00092778	81.8756	6.21948
746	1084	743	0.000878424	118.614	12.3588
748	745	747	0.004619737	46.9018	10.1624
749	747	606	0.010794744	48.2658	25.1473
751	356	967	1.004549479	1.96503	3.87891
758	967	747	1.004552115	1.36402	1.86902
762	760	761	0.007921251	1.30457	0.0134812
764	761	763	0.025844236	29.0675	21.8363
766	763	765	0.02483337	29.0675	20.9822
767	765	227	0.001575855	27.2942	1.17397
768	765	239	0.011468355	1.77329	0.0360629
770	225	769	0.113149217	27.2627	84.0987
771	769	231	0.055492839	8.60487	4.1089
774	772	773	0.005234813	11.2674	0.664582
776	773	775	0.009895624	24.7508	6.06208
778	775	777	0.001918804	25.8135	1.27857
780	777	779	0.025016602	28.5243	20.3544
782	779	781	0.002123009	23.6949	1.19196
784	781	783	0.026475926	28.3938	21.3451
786	783	785	0.017582374	50.3752	44.6181
788	785	787	0.010848441	48.7099	25.7396
790	787	789	0.013502708	42.7865	24.7192
792	789	1358	0.006304181	25.6984	4.16333
808	801	807	0.067428351	10.7798	7.83545
810	807	809	0.021258288	10.7798	2.4703
812	809	811	0.002057015	11.5982	0.276706
816	813	815	0.008040996	41.2472	13.6804
818	815	817	0.006307087	74.1248	34.6542
820	817	2460	0.008272603	74.1248	45.4537
821	819	562	0.059565198	16.85	16.9119
827	826	1366	0.028515783	9.53734	2.59382
828	789	826	0.005479975	17.0881	1.60017
830	826	829	0.016448624	7.55073	0.937794
835	367	834	0.047765854	18.0494	15.5612
837	834	1334	0.059737092	18.0494	19.4612
839	836	838	0.03496263	30.4528	32.4234
841	838	840	0.034358557	55.1354	104.447
843	840	842	0.016052123	28.1569	12.7263
845	842	844	0.002732287	27.0942	2.00576
847	844	846	0.034106792	24.3834	20.2782
849	846	848	0.000952303	29.2128	0.812684
851	848	850	0.026829856	24.5139	16.1229
853	850	2429	0.020689287	2.53252	0.132694
855	852	854	0.002917125	29.673	2.56849
857	854	856	0.019569626	29.673	17.2308
859	856	858	0.020325213	18.9918	7.33107
861	858	860	0.017376242	18.9918	6.26741
863	860	2591	0.020476895	18.9918	7.38578
865	862	1285	0.020132483	23.6616	11.2716
866	785	864	0.004004857	1.66534	0.0111069
867	787	852	0.052844752	5.92339	1.85414
868	856	862	0.213931289	10.6812	24.407
870	844	777	0.008885166	2.71079	0.0652916
871	842	775	0.008885258	1.0627	0.0100344
873	519	872	0.013730839	18.9412	4.9262
875	872	874	0.017008741	9.34221	1.48447
877	874	876	0.009100462	9.34221	0.79426
878	876	381	0.003505595	6.83653	0.163845
879	379	520	0.023408914	7.97154	1.48753
880	872	520	0.016476374	9.59898	1.51814
887	884	886	0.004990041	46.5116	10.7951
895	886	894	0.015580386	46.5116	33.7055
897	894	896	0.002389287	45.8019	5.01228
899	896	898	0.026535383	18.039	8.63476
901	898	900	0.018186544	7.20958	0.945301
903	900	902	0.013648828	3.60407	0.177289
906	905	902	0.00850813	53.7152	24.5487
913	912	707	0.026255923	2.90465	0.221521
915	912	1095	0.172080944	22.2425	85.1334
917	914	916	0.041424426	29.1298	35.1505
919	916	918	0.004042717	28.5315	3.29096
920	918	760	0.014166734	29.8395	12.614
921	760	519	0.048239462	28.535	39.2788
923	900	676	0.020485854	3.60551	0.26631
927	898	377	0.059925012	10.8294	7.02776
928	516	912	0.05009965	25.1472	31.6821
930	929	574	0.006617439	3.50384	0.0812416
932	929	718	0.040545965	1.11862	0.0507356
939	743	938	0.013095172	36.738	17.6743
949	947	578	0.011044544	1.40053	0.0216637
953	950	952	0.018331794	14.4145	3.80894
954	952	578	0.007243597	15.5249	1.74587
956	929	955	7.233645131	6.79681	334.17
958	955	957	0.002716346	6.79681	0.125486
960	957	952	0.026273596	1.11042	0.0323962
962	957	950	0.003830737	5.68639	0.123867
964	963	602	0.005267898	55.6451	16.3114
965	745	963	0.012783412	41.2117	21.7114
966	938	963	0.027749163	14.4335	5.78087
968	967	359	2.316566294	5.31303	65.3927
990	598	989	0.005215432	3.78977	0.0749059
991	989	707	0.005132396	3.78977	0.0737133
993	600	716	0.014267448	17.8324	4.53697
998	929	714	0.031208294	1.20052	0.0449789
1000	369	223	0.010331275	21.7248	4.87602
1002	1001	914	0.058572699	8.53512	4.26692
1004	1003	1001	0.00657855	8.53512	0.479236
1006	1005	1003	0.012160453	8.53512	0.885868
1007	884	1005	0.003894519	8.53512	0.283709
1011	1010	684	0.015661147	2.99035	0.140045
1014	524	1243	0.009870291	4.30836	0.183212
1016	262	1015	0.002745383	41.0112	4.61751
1020	1017	1019	0.016019087	41.0112	26.9428
1022	1019	1021	0.04795307	46.9011	105.483
1023	876	1021	0.002869825	2.50568	0.018018
1024	1021	905	0.004837094	49.4068	11.8075
1026	387	1025	0.00911838	5.8899	0.316325
1030	1027	1029	0.014750718	5.8899	0.511716
1032	1029	1031	0.003649283	5.8899	0.126597
1033	1031	1019	0.008066231	5.8899	0.279825
1035	896	761	0.009744017	27.7629	7.51048
1043	1321	918	0.005061219	1.30797	0.00865866
1050	916	1048	0.003593232	0.598241	0.00128599
1052	550	1051	0.004396803	3.01127	0.0398691
1054	1051	1053	0.005954004	3.01127	0.0539894
1055	1053	558	0.005935655	1.50552	0.0134537
1058	840	772	0.05113139	11.2674	6.49135
1059	1053	556	0.005679145	1.50576	0.0128764
1060	548	838	0.050277095	24.6827	30.6306
1068	73	94	0.017241125	4	0.275858
1070	1069	73	0.014844639	95.9866	136.77
1073	10	16	0.034275648	39.4045	53.2203
1078	572	1077	0.001847912	116.817	25.217
1080	1077	1079	0.003660786	217.014	172.405
1085	1084	745	0.001796345	88.1135	13.9468
1088	1084	947	19.30675681	1.40053	37.8699
1093	1092	1084	0.007341361	212.84	332.57
1094	1084	967	1.00167848	4.71202	22.2404
1096	1095	914	0.055845256	20.5947	23.6863
1098	1097	223	0.035813926	1.64789	0.0972542
1101	357	596	0.010968262	31.0862	10.5992
1102	596	712	0.006242344	13.34	1.11086
1104	1103	929	0.06632614	21.3479	30.227
1105	583	585	0.00601499	3.19289	0.0613201
1138	773	1137	0.008409509	2.22775	0.0417353
1140	1137	241	0.008830233	2.22775	0.0438233
1142	1141	556	0.001959322	41.2125	3.32785
1143	241	1141	0.007889023	33.4508	8.82747
1165	1164	538	0.002978554	35.4557	3.74436
1166	1164	884	0.007681957	55.0467	23.2774
1184	534	1164	0.010592325	90.5023	86.7582
1185	678	684	0.04151226	60.9247	154.086
1188	423	427	0.02775168	29.8645	24.7514
1192	18	458	0.001979756	29.2237	1.69076
1195	730	718	0.009662727	20.9384	4.2363
1197	829	1283	0.00373999	7.55073	0.21323
1202	1203	47	0.006030327	41.9178	10.5959
1204	1205	1203	0.001566113	43.2491	2.92939
1206	45	1205	0.010102485	44.9055	20.3717
1208	1203	1214	0.015504	1.33125	0.0274766
1210	1205	1214	0.015449557	1.65636	0.0423863
1213	1212	208	0.028092229	57.6035	93.2146
1216	1214	1212	0.015395123	2.98761	0.137414
1231	177	180	0.004725024	39.0048	7.18853
1246	1243	1245	0.023139629	4.30836	0.429517
1248	381	387	0.042918916	24.0452	24.8145
1018	1015	1017	0.006982502	41.0112	11.744
1028	1025	1027	0.003803618	5.8899	0.131951
1262	289	1261	0.018112792	3.038	0.167171
1263	1261	250	0.009789521	30.1557	8.90226
1268	1267	252	0.110902265	4.09329	1.85817
1269	343	1267	0.030111448	4.09329	0.504518
1281	840	773	0.029451008	15.7112	7.26974
1284	1283	815	0.008210385	32.8777	8.87496
1286	864	1285	0.003421752	1.66534	0.00948974
1287	1285	1283	0.015279603	25.3269	9.80113
814	811	813	0.001904017	11.5982	0.256125
436	433	1291	0.011647624	27.9192	9.07911
1293	441	1294	0.047532856	7.83551	2.91829
1295	1291	1294	0.003744523	26.4386	2.61742
1297	1296	139	0.004489197	37.808	6.41706
1298	1294	1296	0.004107596	34.2741	4.82525
1301	1300	433	0.028020806	34.5949	33.5355
1303	1300	1302	0.012449693	2.80281	0.0978016
1305	1304	145	0.007974004	85.2923	58.0091
1306	1302	1304	0.007992394	2.80281	0.0627862
1315	2381	34	3.109973391	3.49689	38.0295
1317	938	618	0.139767987	22.3046	69.5339
1322	894	1321	0.00405335	0.70973	0.00204174
1323	1048	1321	0.008610635	0.598241	0.00308168
1333	1332	371	0.013092699	17.3412	3.9372
1335	1334	836	0.07360792	30.4528	68.262
1336	1332	1334	0.056840385	12.4033	8.74443
1342	779	846	0.008811955	4.82941	0.205523
1343	229	237	0.002186803	8.33711	0.151999
1344	848	781	0.008976789	4.69893	0.198207
1350	850	783	0.011652921	21.9813	5.63043
1359	1358	791	0.008363073	2.06091	0.0355209
1368	791	1366	0.004647053	1.2425	0.00717415
1369	791	809	0.007360642	0.8184	0.00493
1371	1366	801	0.030084742	10.7798	3.49597
1099	1095	1097	15.04421889	1.64789	40.8532
339	147	338	0.004470862	45.2837	9.16801
1577	338	1579	0.000699664	45.2837	1.43474
1582	1579	307	0.009666161	48.2848	22.5359
1594	59	1595	0.014335995	21.0857	6.37388
1597	1595	100	0.020516089	21.5316	9.51146
1600	484	1579	0.018344756	3.00111	0.165225
1249	1245	905	0.002078643	4.30836	0.0385837
1013	1008	1010	0.001019603	2.99035	0.00911749
999	564	688	0.010527011	24.9236	6.53923
2059	2058	484	0.011412013	0.8582	0.00840503
2060	2058	429	0.825047734	1.47591	1.79721
2063	453	2058	0.018730648	2.3341	0.102045
2087	929	950	4.397118557	8.72807	334.969
2088	707	703	0.057535983	26.4697	40.3123
2090	2089	716	0.002763597	9.80495	0.265684
2091	2089	707	0.703605474	12.2521	105.621
1009	371	1008	0.004017225	2.45974	0.0243055
2195	445	2209	0.002540158	16.6078	0.700624
2210	2194	2209	0.100625948	4.60318	2.13219
2212	2211	141	0.003714048	81.4388	24.6326
2216	2209	2211	0.107711931	21.211	48.4603
2224	2225	1291	-0.003352643	-1.48068	0.00735038
2231	441	2232	0.015101529	3.1225	0.14724
2234	2232	2225	0.016657425	3.1225	0.16241
2245	433	2503	0.004638021	17.6585	1.44624
2254	2225	2605	0.088254118	4.60318	1.87004
2255	2253	2194	0	0	0
1361	1358	1360	0.008777992	23.6375	4.90454
2267	2266	16	0.010413481	2.4232	0.0611469
2282	231	2427	0.001265246	2.5593	0.00828738
2284	769	2286	0.034237684	18.6578	11.9186
2288	2286	2281	0.008109818	3.0449	0.0751895
2301	1360	2300	0.01784326	23.6375	9.96959
2308	2300	2306	0.003191996	16.0845	0.825805
2310	2309	813	0.004397533	23.6375	2.45704
2316	2306	2309	0.003351593	23.6375	1.87264
2328	2300	2327	0.005378524	7.553	0.306833
2330	2327	2329	0.003511195	7.553	0.200306
2331	2329	2306	0.005585999	7.553	0.318669
280	277	279	0.016496751	24.627	10.0051
1472	269	271	0.00578199	27.1177	4.2519
274	271	273	0.056994261	24.627	34.5664
2342	271	279	0.016668097	2.49064	0.103397
2353	279	1261	0.02200322	27.1177	16.1805
2359	273	2358	0.059408155	24.627	36.0304
2367	2358	2366	0.007488988	24.627	4.54199
2369	2366	2368	0.042504142	24.627	25.7783
2370	2368	277	0.02422665	24.627	14.6932
2379	583	2378	0.044819136	9.41153	3.96994
2382	2381	36	3.041308704	5.91464	106.394
2383	2378	2381	0.012400525	9.41153	1.0984
2428	2281	2427	0.003593311	18.6578	1.25088
2430	2429	852	0.019013427	23.7496	10.7244
2431	2427	2429	0.008504098	21.2171	3.82825
2461	2460	819	0.005100406	16.85	1.44812
2466	2464	2467	0.001305003	26.5813	0.92207
2468	2467	2465	0.012371408	57.2748	40.5832
2469	2460	2473	0.007099189	57.2748	23.2882
2474	2473	2467	0.001565995	30.6935	1.47531
2475	2473	2464	0.000783002	26.5813	0.553242
2479	2478	564	0.001859539	118.349	26.0456
2480	2465	2478	0.015921003	57.2748	52.2273
2482	2266	53	0.007132515	2.00238	0.028598
2504	2503	445	0.001134001	16.6078	0.312779
2505	2503	141	0.015307604	1.05068	0.0168985
2530	2529	237	0.022684438	21.1127	10.1115
2532	2527	2529	0.025687718	21.1127	11.4502
2536	2286	2539	0.005289038	15.6129	1.28927
2542	2539	2547	0.007757218	15.6129	1.89092
2549	2547	2281	0.002884782	15.6129	0.703202
2558	2557	133	0.00616005	13.3814	1.10303
2561	2559	2557	0.54764145	13.3814	98.0617
2226	2196	2253	0	-15.0538	0
2205	2204	2202	0	4.60317	0
2580	2613	2196	0	-15.0538	0
2581	2202	2194	0	4.60317	0
2587	2586	2311	0.022684505	6.01145	0.819762
2590	2589	2586	0.025687809	6.01145	0.928294
2592	2591	862	0.020476728	12.9804	3.45014
2593	2591	2589	0.092518495	6.01145	3.34339
2595	2311	2594	0.008041003	6.01145	0.290582
2596	2594	813	0.015279599	6.01145	0.552167
2606	2605	2253	0.088254673	15.0538	20
2608	2605	2607	0	-10.4507	0
2610	2607	2609	0	-10.4507	0
2612	2609	2611	0	-10.4507	0
2614	2613	2204	0	4.60317	0
2615	2611	2613	0	-10.4507	0