{
    "edges": [
        { "id": 1, "r": 0.375, "s": 1, "t": 2 },
        { "id": 2, "r": 1.50, "s": 2, "t": 3 },
        { "id": 3, "r": 2.0, "s": 2, "t": 4 },
        { "id": 4, "r": 4.6875, "s": 3, "t": 5 },
        { "id": 5, "r": 12.5, "s": 3, "t": 4 },
        { "id": 6, "r": 1.7361, "s": 4, "t": 5 },
        { "id": 7, "r": 0.5, "s": 5, "t": 6 }
    ],
    "fans": [
        { "a0": 1046.3, "a1": 5.0, "a2": -0.85, "eID": 7 }
    ],
    "maxCount": 1000,
    "q_precise": 0.0001,
    "h_precise": 1.0,
    "Q": 1000
}
