{
    "edges": [],
    "topo_file": "data\\graph_data12.txt",
    "edge_weights_file":{
        "weights" : [
            {"name":"id","type":"int"},
            {"name":"sysn_S","type":"float"},
            {"name":"sysn_L","type":"float"},
            {"name":"sysn_alpha","type":"float"},
            {"name":"sysn_D","type":"float"},
            {"name":"sysn_r","type":"float"},
            {"name":"sysn_a0","type":"float"},
            {"name":"sysn_a1","type":"float"},
            {"name":"sysn_a2","type":"float"},
            {"name":"sysn_a3","type":"float"},
            {"name":"sysn_a4","type":"float"},
            {"name":"sysn_b0","type":"float"},
            {"name":"sysn_b1","type":"float"},
            {"name":"sysn_b2","type":"float"},
            {"name":"sysn_b3","type":"float"},
            {"name":"sysn_b4","type":"float"}
        ],
        "file":"data\\graph_data12_edge_weight.txt"
    },
    "hasQ": false,
    "fans": [
        { "a0": -1552.985, "a1": 122.486, "a2": -0.8749, "eID": 13 }
    ],
   "qFixs": [
        {"eID":6,"fq":30},
		{"eID":7,"fq":40},
		{"eID":8,"fq":25},
        {"eID":11,"fq":10}
    ],
    "maxCount": 100,
    "q_precise": 0.0001,
    "h_precise": 0.1,
    "Q": 1000
}
