{
    "edges": [],
    "topo_file": "data\\graph_data14.txt",    
    "hasQ": false,
    "fans": [
        { "a0": 1035.92, "a1": 51.73, "a2": -0.43, "eID": 14 }
    ],
    "qFixs": [
    ],
    "maxCount": 100,
    "q_precise": 0.0001,
    "h_precise": 0.1,
    "Q": 1000
}