3	83	2	0.00141265	26.8766	1.02043
5	2	4	0.000768962	39.2095	1.18219
7	4	6	0.003607204	53.6668	10.3892
11	6	10	0.025319655	45.0475	51.3806
19	16	18	0.004268885	41.8143	7.46387
21	18	20	0.052423284	12.6088	8.33435
23	20	22	0.002896633	13.9738	0.565617
25	24	22	0.002365189	1.06509	0.00268311
27	26	24	0.057757295	17.2014	17.0897
29	28	26	0.01669641	17.2014	4.94027
35	34	28	0.086260295	17.2014	25.5234
39	36	707	0.262838542	7.50698	14.8122
41	40	4	0.0190081	14.4573	3.97295
44	42	43	0.004696075	38.2885	6.88449
46	43	45	0.007440163	46.9078	16.3709
50	47	49	0.021086369	43.9718	40.7709
52	49	51	0.001222686	39.5464	1.91218
54	51	53	0.001360718	0.555573	0.000420001
60	53	59	3.948104232	2.55706	25.8149
68	6	43	0.021610778	8.61934	1.60553
74	73	42	0.000476255	48.8885	1.13829
76	73	75	0.002354407	26.8766	1.70071
84	75	83	0.002749257	26.8766	1.98593
89	88	2	0.019051341	12.3328	2.89767
90	88	40	0.007257576	3.85734	0.107986
91	42	40	0.006955206	10.6	0.781487
92	73	88	0.006911995	16.1902	1.81179
97	24	98	0.029281146	16.1363	7.62423
101	98	100	0.008150389	30.7293	7.69633
103	100	102	0.01050615	52.2638	28.6976
105	102	104	0.007987752	22.3904	4.0045
107	104	106	0.009883043	12.2728	1.4886
109	106	112	0.010227891	8.77203	0.787021
115	112	118	0.577815456	12.2728	87.0315
121	118	120	0.085167056	12.2728	12.828
123	120	122	0.009418776	52.279	25.7424
126	171	2559	0.010695061	13.3805	1.91482
138	133	137	0.016567645	22.4169	8.32553
140	137	139	0.021310506	22.4169	10.7089
142	139	2211	0.001565981	60.226	5.68008
144	141	143	0.002637442	82.4867	17.9453
146	143	1304	0.005872027	82.4867	39.9536
148	145	147	0.008740334	85.2897	63.5801
149	147	120	0.005067366	40.0062	8.1103
152	171	133	0.032202938	9.0364	2.62958
154	104	155	0.00869928	10.1176	0.890509
158	155	157	0.008257961	10.1176	0.845333
160	157	159	0.103397784	10.1176	10.5844
162	159	161	0.070118515	10.1176	7.17774
164	161	163	0.03886629	10.1176	3.97858
166	163	165	0.024771522	12.2178	3.69776
168	165	167	0.026935989	12.2178	4.02086
170	167	169	0.012914858	8.68419	0.973976
172	169	171	0.026931803	22.4169	13.5337
183	180	182	0.028274563	48.2998	65.9609
185	182	184	0.037824329	15.8329	9.48183
187	184	186	0.006670118	15.8329	1.67207
189	186	188	0.039093459	13.7327	7.37252
190	188	169	0.007435346	13.7327	1.40221
191	167	1296	0.039244637	3.53362	0.490027
192	186	163	0.018222296	2.10018	0.0803741
194	45	199	0.04556067	2.02775	0.187335
202	199	201	0.165333662	2.02775	0.679814
207	205	332	0.005338199	51.8624	14.3582
209	332	1212	0.005476596	54.6147	16.3354
211	208	210	0.027783012	37.1191	38.2802
213	210	212	0.023473867	34.9759	28.7159
215	212	214	0.002316594	32.0314	2.37685
217	214	201	0.020136537	32.0314	20.6603
219	201	218	0.002473685	34.0591	2.86953
221	218	220	0.004059594	59.6299	14.4348
226	223	225	0.139282398	23.416	76.3698
228	227	225	0.01508439	3.83554	0.221912
230	227	229	0.00740658	23.3699	4.04512
232	229	231	0.009954949	15.0328	2.24967
234	231	2527	0.092518142	21.1517	41.3921
240	237	239	0.008766791	29.4889	7.62356
242	239	241	0.007917191	31.2602	7.73668
245	243	244	0.006880895	13.8437	1.31871
247	244	267	0.045672695	36.777	61.7745
249	267	248	0.011201771	6.59026	0.48651
251	248	250	0.031880429	2.49053	0.197746
253	250	252	0.011509957	32.6773	12.2904
255	252	254	0.012529909	36.777	16.9473
257	254	256	0.006752368	36.777	9.1329
259	256	258	0.040772387	36.777	55.1466
261	258	260	0.003733168	39.457	5.812
263	260	262	0.005277929	39.457	8.21697
265	264	262	0.004099314	1.59407	0.0104166
266	244	258	0.030465239	2.67996	0.218807
270	267	269	0.029634689	30.1868	27.0044
288	269	287	0.013246656	3.03827	0.122281
290	287	289	0.006719871	3.03827	0.0620317
294	292	293	0.013075943	113.157	167.431
300	298	299	0.08479436	20.4831	35.5761
302	299	301	0.059586683	22.6262	30.5051
304	301	303	0.00992797	25.5708	6.49156
305	212	301	0.53749542	2.94457	4.66035
306	210	299	0.624520419	2.14318	2.86856
308	307	205	0.134669576	48.2846	313.969
310	303	309	0.012463612	25.5708	8.14953
311	309	218	0.010097133	25.5708	6.60217
313	122	312	0.116592411	52.279	318.658
315	312	314	0.070781003	49.5268	173.619
317	314	316	0.018714227	49.5268	45.9042
319	316	318	0.008003197	42.5902	14.5172
320	318	292	0.004652975	49.5268	11.4133
326	94	220	0.005980863	4	0.0956938
328	220	327	0.002590544	63.6299	10.4885
329	327	292	0.002249763	63.6299	9.10876
331	312	330	0.020182498	2.75225	0.15288
333	330	332	1.164667946	2.75225	8.82222
337	208	298	0.013267458	20.4831	5.56646
344	248	343	0.178103171	4.09973	2.99352
358	356	357	0.008204759	80.1641	52.7261
360	357	359	0.006454964	48.8777	15.4211
362	359	361	0.00281295	54.1682	8.25374
364	361	363	0.002837069	54.1682	8.32451
366	363	365	0.009382234	69.7041	45.5851
368	365	367	0.018859433	69.7041	91.6316
370	367	369	0.009292905	51.6151	24.7574
372	369	1332	0.00224537	29.8266	1.99754
374	371	373	0.001396558	15.0205	0.315085
376	373	1008	0.147014774	15.0205	33.1688
378	1008	377	0.033608684	14.5034	7.06954
380	377	379	0.056465278	25.2409	35.9742
382	379	381	0.008807875	17.174	2.59785
390	387	528	0.01006485	18.1867	3.32901
393	528	244	0.001870964	25.6132	1.22742
395	49	2266	0.008559017	4.42545	0.167625
400	399	205	0.090973249	3.57782	1.16453
402	401	47	0.028886349	2.07931	0.124891
403	10	401	0.009520012	5.65712	0.304669
404	401	399	0.01098877	3.57782	0.140665
408	407	177	0.021928542	23.032	11.6325
409	51	407	0.001298318	38.9908	1.97381
424	102	423	0.017639004	29.8734	15.7414
430	427	429	0.002412173	27.72	1.85351
432	429	431	0.014166324	29.1958	12.0753
434	431	1300	0.003888939	37.397	5.43882
438	453	431	0.207762418	8.20119	13.974
440	453	439	0.100213778	21.9421	48.2485
442	439	441	0.03523758	10.9598	4.23264
444	439	433	0.038910907	10.9823	4.69308
455	182	453	0.022950014	32.4669	24.1916
459	458	180	0.018107689	9.30898	1.56916
474	458	59	0.016808905	19.8966	6.65422
479	22	1595	0.025661353	15.0389	5.80379
480	1595	98	0.008535533	14.593	1.81769
486	427	484	0.013951233	2.15334	0.0646901
488	59	20	0.003322964	1.36501	0.00619152
493	732	492	0.011789486	12.104	1.72724
495	492	494	0.022722083	12.104	3.32894
496	494	34	0.029027526	13.7014	5.44929
499	497	498	0.017188429	1.62878	0.0455996
517	516	498	0.006028599	1.65933	0.016599
521	519	520	0.06768138	9.59988	6.23736
525	520	524	0.025910673	27.1688	19.1258
526	524	264	0.01193615	22.8644	6.23999
527	264	243	0.008097618	21.2703	3.66357
529	243	528	0.001727042	7.42657	0.0952532
533	497	532	0.007155222	29.4913	6.22316
535	532	534	0.005441269	46.3611	11.6952
541	538	540	0.013512124	35.5438	17.0707
545	540	544	0.001159533	35.5438	1.46491
547	544	546	0.005277079	17.5659	1.6283
549	546	548	0.075971749	35.5438	95.9798
551	548	550	0.035826134	10.7699	4.1555
553	550	552	0.009654915	7.76211	0.581712
555	552	554	0.006815047	7.76211	0.410609
557	554	1141	0.011031255	7.76211	0.664637
559	556	558	0.005971886	42.7457	10.9118
561	558	560	0.028044401	44.2494	54.9112
563	560	562	0.008261094	44.2494	16.1753
565	562	2478	0.026517174	61.1059	99.0133
567	564	566	0.011310999	93.4627	98.8047
569	566	570	0.002329476	100.201	23.3885
573	570	1077	0.001287001	100.201	12.9218
575	574	572	0.014015401	34.7075	16.8831
577	1997	574	0.039086104	31.2062	38.0631
580	578	579	0.02316424	16.9198	6.63145
582	579	581	0.016511688	16.9198	4.72696
584	581	583	0.083756756	12.6043	13.3063
586	585	36	0.006200985	1.60225	0.0159192
588	585	494	0.027062253	1.59737	0.0690518
593	592	363	0.002652287	15.5359	0.640167
597	596	592	0.01694908	34.367	20.0184
599	598	596	0.006954502	16.4236	1.87587
601	600	598	0.005861649	20.212	2.39463
603	602	600	0.018419525	38.0718	26.6984
605	602	604	0.028585489	17.4676	8.72192
607	606	604	0.004005537	52.5595	11.0653
608	581	606	0.019566188	4.31549	0.36439
615	516	497	0.006156802	31.1201	5.96262
617	618	516	0.004817277	57.8699	16.1327
621	732	618	0.008810866	20.1728	3.58551
630	635	498	0.022824431	1.47049	0.0493542
637	732	635	0.00735849	16.9258	2.10808
639	635	618	0.006118318	15.4553	1.46146
660	659	534	0.007810453	44.0706	15.1696
662	661	659	0.00510411	60.9404	18.9553
663	592	661	0.003109047	18.8311	1.1025
670	659	532	0.012649981	16.8698	3.60006
673	902	672	0.004709755	57.3589	15.4953
675	672	676	0.012904298	57.3589	42.4557
679	676	678	0.015810978	60.9616	58.7586
687	684	688	0.005176515	63.955	21.1732
691	688	690	0.011678439	88.8478	92.1888
692	690	572	0.001676309	82.1094	11.3016
693	690	566	0.004259969	6.73843	0.19343
697	498	696	0.633129962	31.2062	616.559
700	696	1997	0.016705535	31.2062	16.2683
702	701	498	0.092154187	26.4476	64.4596
704	703	701	0.028817448	26.4476	20.1571
713	712	661	0.008251329	42.1093	14.6312
715	714	712	0.00603058	28.7662	4.99027
717	716	714	0.002487227	27.5664	1.89006
719	718	2089	0.006454975	21.943	3.10804
733	730	732	0.007929998	49.2026	19.1977
742	604	730	0.003086752	70.0271	15.1368
744	743	356	0.00092778	82.093	6.25255
746	1084	743	0.00087843	118.722	12.3814
748	745	747	0.004619757	46.8927	10.1585
749	747	606	0.010794749	48.244	25.1246
751	356	967	1.004551903	1.92883	3.73732
758	967	747	1.004551538	1.35131	1.83435
762	760	761	0.007921284	1.20782	0.0115558
764	761	763	0.025844188	28.9768	21.7002
766	763	765	0.024833416	28.9768	20.8515
767	765	227	0.001575852	27.2055	1.16635
768	765	239	0.011468383	1.77131	0.0359825
770	225	769	0.113149039	27.2516	84.0301
771	769	231	0.055492755	8.65597	4.15784
774	772	773	0.005234798	11.3287	0.671831
776	773	775	0.009895561	24.8117	6.09191
778	775	777	0.001918792	25.8769	1.28485
780	777	779	0.025016722	28.5353	20.3702
782	779	781	0.002122996	23.77	1.19952
784	781	783	0.026475891	28.4572	21.4405
786	783	785	0.017582387	50.3666	44.6029
788	785	787	0.010848455	48.7005	25.7297
790	787	789	0.013502752	42.7673	24.6971
792	789	1358	0.006304216	25.6748	4.15571
808	801	807	0.067428244	10.7791	7.83442
810	807	809	0.021258209	10.7791	2.46997
812	809	811	0.002056991	11.5955	0.276574
816	813	815	0.008041009	41.1409	13.61
818	815	817	0.006307082	74.106	34.6366
820	817	2460	0.008272594	74.106	45.4306
821	819	562	0.059564669	16.8565	16.9248
827	826	1366	0.028515793	9.51702	2.58278
828	789	826	0.005479995	17.0925	1.601
830	826	829	0.01644866	7.57546	0.943949
835	367	834	0.047765375	18.089	15.6294
837	834	1334	0.059736821	18.089	19.5466
839	836	838	0.034962573	30.4189	32.3512
841	838	840	0.034358817	55.1927	104.665
843	840	842	0.016052073	28.1617	12.7306
845	842	844	0.002732286	27.0965	2.0061
847	844	846	0.034106932	24.438	20.3692
849	846	848	0.000952301	29.2034	0.812159
851	848	850	0.02682998	24.5162	16.126
853	850	2429	0.020689453	2.60677	0.14059
855	852	854	0.002917124	29.6726	2.56842
857	854	856	0.019569586	29.6726	17.2303
859	856	858	0.020325207	18.9878	7.32798
861	858	860	0.017376241	18.9878	6.26477
863	860	2591	0.020476898	18.9878	7.38267
865	862	1285	0.02013257	23.7235	11.3307
866	785	864	0.004004903	1.66608	0.0111169
867	787	852	0.052844817	5.93317	1.86027
868	856	862	0.213933935	10.6847	24.4233
870	844	777	0.008885211	2.65847	0.0627959
871	842	775	0.008885208	1.06521	0.0100818
873	519	872	0.013730886	18.9156	4.91291
875	872	874	0.017008738	9.41365	1.50726
877	874	876	0.009100452	9.41365	0.806453
878	876	381	0.003505593	6.91059	0.167414
879	379	520	0.023408959	8.06686	1.52332
880	872	520	0.01647631	9.50199	1.48761
887	884	886	0.00499003	46.3699	10.7294
895	886	894	0.015580413	46.3699	33.5005
897	894	896	0.002389293	45.7117	4.99257
899	896	898	0.026535619	17.9427	8.54289
901	898	900	0.018186585	7.20517	0.944147
903	900	902	0.013648851	3.60242	0.177127
906	905	902	0.008508142	53.7565	24.5865
913	912	707	0.026255873	2.91579	0.223223
915	912	1095	0.172079967	22.1747	84.6147
917	914	916	0.041424511	29.0651	34.9946
919	916	918	0.004042717	28.4681	3.27635
920	918	760	0.014166792	29.7233	12.516
921	760	519	0.048239666	28.5155	39.2253
923	900	676	0.020485783	3.60276	0.265903
927	898	377	0.059924861	10.7376	6.9091
928	516	912	0.050099503	25.0905	31.5393
930	929	574	0.006617454	3.50134	0.0811259
932	929	718	0.040545867	1.11851	0.0507255
939	743	938	0.013095191	36.6291	17.5697
949	947	578	0.01104456	1.39739	0.0215667
953	950	952	0.018331923	14.4125	3.80791
954	952	578	0.007243606	15.5224	1.74531
956	929	955	7.233653393	6.79644	334.134
958	955	957	0.00271636	6.79644	0.125473
960	957	952	0.026273381	1.1099	0.0323656
962	957	950	0.003830738	5.68655	0.123874
964	963	602	0.005267869	55.5394	16.2494
965	745	963	0.012783383	41.1521	21.6486
966	938	963	0.027749301	14.3873	5.74395
968	967	359	2.316568341	5.29047	64.8386
990	598	989	0.005215435	3.78839	0.0748514
991	989	707	0.005132394	3.78839	0.0736596
993	600	716	0.014267533	17.8598	4.55095
998	929	714	0.031208427	1.19985	0.0449289
1000	369	223	0.010331198	21.7885	4.90462
1002	1001	914	0.058572703	8.518	4.24982
1004	1003	1001	0.006578558	8.518	0.477316
1006	1005	1003	0.012160456	8.518	0.882318
1007	884	1005	0.003894519	8.518	0.282572
1011	1010	684	0.015661062	2.99341	0.140331
1014	524	1243	0.009870285	4.30435	0.182871
1016	262	1015	0.002745377	41.0511	4.62649
1020	1017	1019	0.016019057	41.0511	26.9952
1022	1019	1021	0.047953061	46.9491	105.699
1023	876	1021	0.002869818	2.50306	0.0179803
1024	1021	905	0.004837109	49.4521	11.8292
1026	387	1025	0.009118366	5.89798	0.317193
1030	1027	1029	0.014750691	5.89798	0.51312
1032	1029	1031	0.003649295	5.89798	0.126945
1033	1031	1019	0.008066223	5.89798	0.280593
1035	896	761	0.00974399	27.769	7.51376
1043	1321	918	0.005061174	1.25519	0.00797389
1050	916	1048	0.00359324	0.596969	0.00128053
1052	550	1051	0.004396791	3.00776	0.0397761
1054	1051	1053	0.005953992	3.00776	0.0538635
1055	1053	558	0.005935707	1.50375	0.0134222
1058	840	772	0.05113128	11.3287	6.56216
1059	1053	556	0.00567915	1.50401	0.0128465
1060	548	838	0.050277141	24.7739	30.8574
1068	73	94	0.017241125	4	0.275858
1070	1069	73	0.014844659	95.9553	136.681
1073	10	16	0.034275507	39.3904	53.182
1078	572	1077	0.001847897	116.817	25.2168
1080	1077	1079	0.0036608	217.018	172.412
1085	1084	745	0.001796337	88.0448	13.925
1088	1084	947	19.30676649	1.39739	37.7003
1093	1092	1084	0.007341391	212.877	332.687
1094	1084	967	1.001674882	4.71295	22.2491
1096	1095	914	0.055845646	20.5471	23.5771
1098	1097	223	0.035814094	1.62756	0.0948698
1101	357	596	0.010968302	31.2864	10.7362
1102	596	712	0.006242364	13.3431	1.11138
1104	1103	929	0.066326409	21.3421	30.2107
1105	583	585	0.006014973	3.19962	0.0615787
1138	773	1137	0.008409504	2.2194	0.041423
1140	1137	241	0.008830253	2.2194	0.0434955
1142	1141	556	0.001959318	41.2417	3.33256
1143	241	1141	0.00788899	33.4796	8.84264
1165	1164	538	0.002978553	35.5438	3.76299
1166	1164	884	0.00768196	54.8879	23.1433
1184	534	1164	0.010592314	90.4317	86.6228
1185	678	684	0.04151234	60.9616	154.273
1188	423	427	0.02775173	29.8734	24.7662
1192	18	458	0.00197976	29.2056	1.68867
1195	730	718	0.009662713	20.8245	4.19033
1197	829	1283	0.003740007	7.57546	0.21463
1202	1203	47	0.00603032	41.8925	10.5831
1204	1205	1203	0.001566109	43.2239	2.92597
1206	45	1205	0.010102504	44.8801	20.3487
1208	1203	1214	0.015503949	1.33132	0.0274794
1210	1205	1214	0.015449626	1.6562	0.0423783
1213	1212	208	0.028092201	57.6022	93.2103
1216	1214	1212	0.015395155	2.98752	0.137406
1231	177	180	0.00472503	38.9908	7.18338
1246	1243	1245	0.023139584	4.30435	0.428717
1248	381	387	0.042919109	24.0846	24.896
1018	1015	1017	0.006982465	41.0511	11.7668
1028	1025	1027	0.00380361	5.89798	0.132313
1262	289	1261	0.018112715	3.03827	0.1672
1263	1261	250	0.009789519	30.1868	8.92063
1268	1267	252	0.110902173	4.09973	1.86402
1269	343	1267	0.030111461	4.09973	0.506107
1281	840	773	0.029450973	15.7024	7.26159
1284	1283	815	0.008210397	32.9651	8.92222
1286	864	1285	0.003421771	1.66608	0.00949823
1287	1285	1283	0.015279575	25.3896	9.8497
814	811	813	0.001903996	11.5955	0.256003
436	433	1291	0.011647631	27.9177	9.07814
1293	441	1294	0.047532859	7.83704	2.91943
1295	1291	1294	0.003744537	26.4384	2.61739
1297	1296	139	0.004489188	37.8091	6.41742
1298	1294	1296	0.004107608	34.2754	4.82563
1301	1300	433	0.02802076	34.594	33.5337
1303	1300	1302	0.012449696	2.80293	0.09781
1305	1304	145	0.007973996	85.2897	58.0055
1306	1302	1304	0.007992397	2.80293	0.0627916
1315	2381	34	3.109981289	3.49996	38.0964
1317	938	618	0.139768801	22.2418	69.1433
1322	894	1321	0.004053345	0.658217	0.00175611
1323	1048	1321	0.008610638	0.596969	0.00306859
1333	1332	371	0.01309269	17.4968	4.00817
1335	1334	836	0.073607914	30.4189	68.1101
1336	1332	1334	0.056839786	12.3299	8.64115
1342	779	846	0.008811919	4.76535	0.200106
1343	229	237	0.002186804	8.33719	0.152002
1344	848	781	0.008976805	4.6872	0.197219
1350	850	783	0.011652866	21.9094	5.59363
1359	1358	791	0.008363006	2.07847	0.0361285
1368	791	1366	0.004647022	1.26212	0.00740246
1369	791	809	0.007360644	0.816338	0.00490519
1371	1366	801	0.03008469	10.7791	3.49551
1099	1095	1097	15.04429175	1.62756	39.8516
339	147	338	0.004470863	45.2834	9.16789
1577	338	1579	0.000699663	45.2834	1.43472
1582	1579	307	0.009666155	48.2846	22.5357
1594	59	1595	0.014336032	21.0886	6.37565
1597	1595	100	0.020516084	21.5345	9.51402
1600	484	1579	0.018344811	3.00116	0.165231
1249	1245	905	0.002078642	4.30435	0.0385119
1013	1008	1010	0.001019603	2.99341	0.00913616
999	564	688	0.010527034	24.8927	6.52304
2059	2058	484	0.011411981	0.847816	0.00820284
2060	2058	429	0.825052161	1.47575	1.79683
2063	453	2058	0.018730745	2.32356	0.101126
2087	929	950	4.397107652	8.72597	334.807
2088	707	703	0.057535964	26.4476	40.245
2090	2089	716	0.002763596	9.70655	0.260378
2091	2089	707	0.703615591	12.2364	105.352
1009	371	1008	0.004017213	2.47628	0.0246334
2195	445	2209	0.002540171	16.6079	0.700636
2210	2194	2209	0.100625739	4.60217	2.13125
2212	2211	141	0.003714038	81.4361	24.6309
2216	2209	2211	0.10771218	21.2101	48.4563
2224	2225	1291	-0.003352626	-1.47938	0.00733744
2231	441	2232	0.015101396	3.1228	0.147267
2234	2232	2225	0.016657301	3.1228	0.16244
2245	433	2503	0.004638065	17.6586	1.44627
2254	2225	2605	0.088254144	4.60217	1.86922
2255	2253	2194	0	0	0
1361	1358	1360	0.008777994	23.5964	4.8875
2267	2266	16	0.010413401	2.42397	0.0611853
2282	231	2427	0.001265249	2.53705	0.00814393
2284	769	2286	0.034237494	18.5956	11.8392
2288	2286	2281	0.008109819	3.02923	0.0744176
2301	1360	2300	0.017843277	23.5964	9.93496
2308	2300	2306	0.003192003	16.0565	0.822934
2310	2309	813	0.004397546	23.5964	2.44851
2316	2306	2309	0.003351604	23.5964	1.86614
2328	2300	2327	0.005378525	7.53988	0.305768
2330	2327	2329	0.0035112	7.53988	0.199611
2331	2329	2306	0.005586001	7.53988	0.317563
280	277	279	0.016496646	24.655	10.0278
1472	269	271	0.005781998	27.1485	4.26157
274	271	273	0.056994186	24.655	34.645
2342	271	279	0.01666808	2.49347	0.103632
2353	279	1261	0.022003252	27.1485	16.2173
2359	273	2358	0.059408192	24.655	36.1124
2367	2358	2366	0.007488982	24.655	4.55232
2369	2366	2368	0.042504058	24.655	25.8369
2370	2368	277	0.0242266	24.655	14.7266
2379	583	2378	0.044819118	9.40469	3.96417
2382	2381	36	3.041315254	5.90473	106.038
2383	2378	2381	0.012400592	9.40469	1.09681
2428	2281	2427	0.0035933	18.5956	1.24255
2430	2429	852	0.019013445	23.7394	10.7152
2431	2427	2429	0.008504125	21.1326	3.79783
2461	2460	819	0.00510038	16.8565	1.44923
2466	2464	2467	0.001305001	26.5696	0.921257
2468	2467	2465	0.012371379	57.2496	40.5474
2469	2460	2473	0.007099186	57.2496	23.2677
2474	2473	2467	0.001566003	30.6799	1.47401
2475	2473	2464	0.000783	26.5696	0.552754
2479	2478	564	0.001859564	118.355	26.0486
2480	2465	2478	0.015920987	57.2496	52.1813
2482	2266	53	0.007132469	2.00149	0.0285724
2504	2503	445	0.001134005	16.6079	0.312784
2505	2503	141	0.015307474	1.0507	0.016899
2530	2529	237	0.022684459	21.1517	10.1489
2532	2527	2529	0.025687625	21.1517	11.4925
2536	2286	2539	0.00528899	15.5664	1.28159
2542	2539	2547	0.007757163	15.5664	1.87966
2549	2547	2281	0.002884759	15.5664	0.699014
2558	2557	133	0.006160041	13.3805	1.10288
2561	2559	2557	0.547641955	13.3805	98.0486
2226	2196	2253	0	-15.0538	0
2205	2204	2202	0	4.60216	0
2580	2613	2196	0	-15.0538	0
2581	2202	2194	0	4.60216	0
2587	2586	2311	0.022684509	5.94908	0.80284
2590	2589	2586	0.025687825	5.94908	0.909132
2592	2591	862	0.020476641	13.0388	3.48124
2593	2591	2589	0.092518404	5.94908	3.27437
2595	2311	2594	0.008041015	5.94908	0.284584
2596	2594	813	0.015279606	5.94908	0.540769
2606	2605	2253	0.088254673	15.0538	20
2608	2605	2607	0	-10.4517	0
2610	2607	2609	0	-10.4517	0
2612	2609	2611	0	-10.4517	0
2614	2613	2204	0	4.60216	0
2615	2611	2613	0	-10.4517	0
3	2	1	0.004207807	3.80651	0.0609691
5	4	2	0.002846458	3.80651	0.0412438
7	6	4	0.013101954	3.80651	0.189841
9	85	6	0.003572997	3.80651	0.051771
11	1	81	0.002846458	3.80651	0.0412438
13	12	10	0.002846465	3.22452	0.0295962
16	14	15	0.00519	9.4847	0.46689
18	15	17	0.000258	4.81262	0.00597562
20	17	19	0.040161317	7.74727	2.41049
22	19	3936	0.008508	16.825	2.40845
24	21	23	0.000171999	10.411	0.0186428
26	23	25	0.011571006	7.37692	0.629682
28	25	27	0.002318799	3.94209	0.0360343
30	27	29	0.000395602	2.30884	0.00210885
32	29	31	0.028246971	3.94209	0.43896
34	31	33	0.005529987	3.63616	0.0731156
36	27	35	0.000137601	1.63324	0.000367046
38	35	37	0.000206401	1.63324	0.00055057
40	37	39	0.000240801	1.63324	0.000642331
41	39	29	0.000206401	1.63324	0.00055057
43	12	42	0.0002236	0.581977	7.57E-05
45	42	44	0.0002408	0.581977	8.16E-05
47	44	46	0.0001892	0.581977	6.41E-05
49	46	48	0.0002408	0.581977	8.16E-05
51	50	48	0.456341669	1.73741	1.37751
53	52	50	0.001732638	1.73741	0.00523013
54	15	52	0.000172	4.67206	0.00375445
55	52	17	0.000257999	2.93466	0.00222195
56	48	10	0.005445435	2.31939	0.0292941
58	10	57	0.003712784	5.54393	0.114113
60	57	59	0.00668304	2.06165	0.0284056
62	59	61	0.007549359	2.06165	0.0320878
64	61	63	0.018192685	2.06165	0.0773262
66	63	3938	7.230465177	0.990035	7.08708
68	65	67	0.013443053	9.54287	1.22421
70	67	69	0.002103905	9.54287	0.191595
72	69	71	0.0002064	9.54287	0.0187961
74	71	73	0.149465597	3.28373	1.61167
76	73	75	0.014479824	6.31776	0.577949
78	57	77	0.013612994	3.48226	0.165073
79	77	19	0.008763005	9.07773	0.722117
80	3934	77	0.000258	5.59546	0.00807777
82	81	12	0.009158206	3.80651	0.132698
86	85	3953	10.25216373	0.921014	8.69657
93	90	202	0.005240612	3.04985	0.048746
95	92	94	0.004101591	9.36827	0.359974
97	94	114	0.011621216	9.36827	1.01993
99	96	98	0.008168122	17.2592	2.43312
101	98	100	0.000997601	11.1605	0.124258
103	100	102	0.0003784	5.04494	0.00963082
105	102	276	0.0002236	3.31165	0.00245223
107	104	106	1.744251032	5.24026	47.8977
109	106	108	0.000756797	11.3815	0.0980344
111	108	110	0.000791203	15.7034	0.195108
113	110	112	0.025401156	16.1619	6.63496
115	114	116	0.0002408	8.19504	0.0161718
117	116	125	0.0008944	7.37074	0.0485908
119	114	118	0.008886824	1.17319	0.0122316
121	118	122	0.003189807	1.17319	0.00439037
123	122	120	0.010025749	1.9975	0.0400028
124	116	122	0.000671001	0.824308	0.000455934
126	125	127	0.0002236	4.41848	0.00436534
128	127	96	0.0011008	7.0594	0.0548585
132	120	131	0.002734382	1.9975	0.0109102
133	177	131	0.000257999	2.60329	0.00174849
134	137	131	0.000275199	0.611007	0.00010274
136	125	135	0.0001204	2.95226	0.00104939
138	137	127	0.0002408	2.64092	0.00167945
139	135	137	0.0001548	3.25193	0.00163702
141	131	140	0.001169602	5.21179	0.0317696
142	140	191	0.0001204	3.41641	0.00140529
144	140	143	0.006559276	1.79538	0.0211431
145	143	98	0.756191617	1.79538	2.4375
147	146	148	0.001238001	7.2308	0.0647282
149	148	150	0.000258	4.48857	0.00519799
151	150	152	0.0001892	2.41359	0.00110217
153	152	154	0.000137599	2.09597	0.000604487
157	146	156	0.011633405	2.45553	0.0701451
159	156	158	0.000498799	1.60852	0.00129056
164	154	162	0.000258	1.59461	0.000656037
166	154	165	0.0002236	0.931085	0.000193843
167	165	162	0.000172	1.63933	0.000462233
172	150	171	0.0002236	2.07498	0.00096272
173	171	152	0.0002064	0.820348	0.000138901
175	171	174	0.000154801	1.25463	0.000243671
178	177	135	0.0001032	0.299667	9.27E-06
179	174	177	0.002167194	2.90295	0.0182632
181	156	180	0.000189201	0.847015	0.000135739
182	148	180	0.000739601	2.74224	0.00556171
183	180	174	0.000309602	1.64832	0.000841175
186	158	185	0.000154799	1.60852	0.000400518
187	185	189	0.000206401	3.54945	0.00260036
188	180	185	0.000412797	1.94094	0.00155511
190	162	189	0.000206399	3.23394	0.0021586
192	191	96	0.0002236	10.1998	0.0232624
193	189	191	0.001083598	6.78339	0.0498611
195	152	194	0.000258001	1.13797	0.000334105
197	194	199	0.000172001	1.13797	0.000222737
198	196	165	0.000258	0.708243	0.000129415
200	199	196	0.000223601	0.708243	0.00011216
201	199	154	0.000258001	0.429729	4.76E-05
203	202	92	0.015038202	9.36827	1.31982
205	90	204	0.0003612	6.31838	0.0144198
214	204	213	0.000430002	6.31838	0.0171665
215	213	202	0.000430002	6.31838	0.0171665
217	98	216	0.009529465	4.16073	0.164971
219	216	218	0.0002924	12.9362	0.0489318
221	218	220	0.081715046	9.94392	8.08011
223	220	222	0.363457104	9.94392	35.9392
225	222	224	0.461716087	9.94392	45.6552
227	224	226	0.057150098	9.94392	5.65109
229	226	228	0.308812934	9.94392	30.5359
231	228	230	0.037599028	9.94392	3.71785
233	230	232	0.194512535	9.94392	19.2337
235	232	234	0.293272117	9.94392	28.9992
237	234	236	0.057150098	9.94392	5.65109
239	236	238	0.27422205	9.94392	27.1155
241	240	238	0.30118262	19.3254	112.483
243	240	242	0.005029	0.997283	0.00500171
245	242	244	0.005512887	17.4039	1.66983
247	244	246	0.183145766	21.9974	88.6216
249	246	248	0.033075999	21.9974	16.005
251	248	250	0.035526785	21.9974	17.1909
253	250	252	0.195395355	21.9974	94.549
255	252	3555	0.001445001	30.9095	1.38055
257	254	256	0.050920328	10.1419	5.23757
259	256	258	0.258127078	5.00059	6.4547
261	258	260	3.208150832	5.00059	80.2227
265	98	264	0.000309599	3.73339	0.00431526
267	264	266	0.009281901	3.73339	0.129373
268	266	102	0.0002236	0.926643	0.000191998
270	102	269	0.0002752	2.65993	0.0019471
271	269	216	0.000378401	8.77547	0.0291402
272	100	269	0.000309601	6.11551	0.0115789
274	273	21	0.000602002	3.15954	0.0060096
275	266	273	0.000344	2.80675	0.00270998
279	278	273	0.0002924	0.352796	3.64E-05
280	276	278	0.0002408	0.352796	3.00E-05
284	23	283	0.0010148	3.03402	0.00934152
286	283	285	0.018563916	3.03402	0.170886
288	285	287	0.0001548	3.03402	0.00142498
289	287	73	0.0002752	3.03402	0.00253329
291	218	290	0.2482175	2.99227	2.22246
293	290	292	2.301802228	2.99227	20.6096
295	292	294	0.106378944	2.99227	0.952483
297	294	296	0.2482175	2.99227	2.22246
299	296	298	0.413696949	2.99227	3.70411
301	298	300	0.224578057	2.99227	2.0108
303	300	302	0.39005639	2.99227	3.49244
306	304	305	0.000344	3.45889	0.00411559
308	305	307	0.0002236	3.45889	0.00267513
310	307	309	0.0002408	3.45889	0.00288091
312	309	311	0.0011696	3.45889	0.013993
314	311	367	0.008853954	3.45889	0.105928
317	316	315	0.0003096	7.95768	0.0196053
319	318	316	0.0001892	7.95768	0.011981
321	320	318	0.000894402	7.95768	0.0566377
323	322	320	0.000602001	2.1317	0.00273558
328	327	315	0.086571956	10.189	8.98753
332	331	327	0.000825602	5.539	0.0253299
334	333	331	0.0002408	5.539	0.00738788
336	335	333	0.000602001	5.34511	0.0171993
338	337	327	0.000498802	4.64997	0.0107852
340	339	337	0.0002236	4.64997	0.00483473
342	341	339	0.0001892	4.64997	0.00409093
344	343	341	0.000602001	4.64997	0.0130166
346	345	343	0.000687999	4.84386	0.0161425
348	347	345	0.000653602	2.82931	0.00523208
350	347	349	13.81915079	2.49044	85.7104
351	343	333	0.000258	0.193893	9.70E-06
352	335	345	0.000258	2.01454	0.00104706
354	3673	335	0.000481603	13.1856	0.0837315
355	353	347	0.000258	5.31975	0.00730134
357	353	356	0.0002408	3.96158	0.00377914
358	356	349	0.0004644	3.96158	0.00728834
364	362	322	0.0002236	2.1317	0.00101607
366	335	320	0.263540686	5.82599	8.94514
368	367	369	0.000550401	2.00599	0.00221481
370	369	727	0.008361975	3.45889	0.100042
372	367	371	0.000240801	1.45289	0.000508304
374	371	373	0.000550403	1.45289	0.00116184
375	373	369	0.000258001	1.45289	0.000544612
378	349	377	0.000258	6.45203	0.0107402
380	377	379	0.000172	6.45203	0.00716013
381	379	304	0.000172	6.45203	0.00716013
383	304	382	2.81611223	2.99315	25.2294
386	385	384	0.126819698	3.17306	1.27686
388	387	385	1.192186204	3.17306	12.0033
390	387	389	0.005442928	1.48175	0.0119504
392	389	391	32.73171543	1.48175	71.8652
394	391	393	0.021167019	2.3424	0.11614
396	393	395	0.496128403	6.12308	18.6009
399	398	104	2.304061014	3.17306	23.198
401	400	398	1.537745696	3.17306	15.4825
403	402	400	0.07609162	3.17306	0.766114
404	384	402	0.109910206	3.17306	1.10661
406	25	405	0.007746889	3.43485	0.0913993
407	405	75	0.003478193	3.43485	0.0410364
409	75	408	0.002476901	9.75258	0.235585
411	408	410	2.76624857	5.09778	71.8875
413	410	412	0.006165896	4.23713	0.110698
414	408	387	0.000498799	4.65481	0.0108076
415	410	391	0.000481599	0.860651	0.00035673
417	412	393	0.000515999	3.78068	0.00737545
419	412	418	0.024515051	0.456451	0.00510765
421	418	420	0.054826033	18.4109	18.5839
422	420	395	0.0004816	6.32324	0.019256
424	423	418	0.060030884	17.9545	19.3518
432	395	431	0.054026075	12.4463	8.3692
434	431	433	0.026609837	12.4463	4.12214
436	433	435	0.334023137	8.27832	22.8908
438	435	437	0.571391342	8.00274	36.5941
440	437	439	0.291084948	8.00274	18.6422
442	439	441	0.718988554	7.87551	44.5943
444	441	443	0.452217767	7.87551	28.0482
446	420	445	0.218469343	12.0877	31.9211
448	445	447	0.033347799	12.0877	4.87253
450	447	449	0.151478282	16.2557	40.0278
452	449	451	0.117565986	16.5312	32.1285
454	451	453	0.119260286	16.6585	33.0954
456	453	455	0.017017205	16.6585	4.72237
457	455	443	15.45774685	1.03357	16.513
458	439	451	1130.302487	0.127282	18.3117
459	435	449	545.4641209	0.275563	41.4198
460	433	447	1.397838647	4.16796	24.2831
462	455	461	0.020765716	15.6249	5.06969
464	461	463	0.043160104	15.6249	10.537
466	463	465	0.024023307	15.6249	5.86499
468	465	467	0.056285904	15.6249	13.7415
470	467	469	0.142219856	15.6249	34.7212
472	469	471	0.121704178	16.1709	31.8254
474	471	473	0.071505424	16.2916	18.9787
476	473	475	0.006746912	16.2916	1.79074
478	475	477	0.006350215	16.2916	1.68545
480	477	479	0.019050681	16.2916	5.05636
482	479	481	0.093587937	6.49889	3.95274
484	481	483	0.010351011	26.5366	7.28909
486	483	485	0.010532013	26.5366	7.41655
488	485	487	0.005111908	26.5366	3.59976
490	487	489	0.055731125	25.9178	37.4364
492	489	491	0.00949003	25.9178	6.37476
494	491	493	0.033593917	34.9762	41.0966
498	443	497	0.106641364	8.90905	8.46425
500	497	499	0.364103229	8.90905	28.8993
502	499	501	0.185859672	8.90905	14.7519
504	501	503	0.242940456	3.02247	2.21934
506	503	505	0.3325331	8.36311	23.2579
508	505	507	0.405344225	8.24232	27.5374
510	507	509	0.093721519	8.24232	6.36705
512	509	511	0.028117118	8.24232	1.91016
514	511	513	0.043145765	18.0351	14.0338
516	513	515	0.010846577	18.0351	3.52801
518	515	517	0.038583329	18.0351	12.5498
520	517	519	0.055197032	18.6539	19.2068
522	519	521	0.015426735	18.6539	5.36801
524	521	523	0.673044115	9.59536	61.9678
525	501	469	0.037688701	5.88662	1.306
526	469	503	0.032021	5.34069	0.913334
527	505	471	524.5845771	0.120792	7.65406
528	479	511	0.006770604	9.79278	0.649291
531	530	481	0.056882172	20.0376	22.8385
532	487	517	22.21962722	0.618598	8.50264
533	521	491	0.130813973	9.05832	10.7337
537	534	536	0.00737798	16.5478	2.02031
539	536	538	0.001053995	16.5478	0.288615
541	493	540	0.001106696	34.9762	1.35386
543	540	542	0.000895896	34.9762	1.09598
544	542	534	0.001001294	16.5478	0.274184
546	542	545	0.006640196	18.4284	2.25505
547	545	538	0.001897208	13.1497	0.328055
549	523	548	0.171492656	3.66009	2.29736
551	550	556	0.053674912	3.64712	0.713956
553	523	552	0.154122844	5.93528	5.42937
555	552	554	0.02603206	18.4952	8.90485
557	548	556	0.212651162	3.66009	2.84873
559	556	570	0.0002236	7.30721	0.0119392
561	558	560	0.0001032	12.56	0.0162801
563	560	562	0.000670799	12.56	0.105821
564	562	552	0.0001548	12.56	0.0244202
566	565	550	6172.304833	0.0258993	4.14022
568	567	565	0.082189587	5.27867	2.29016
569	545	567	0.123284022	5.27867	3.43523
571	570	558	0.000791196	12.56	0.124814
572	565	570	0.176342069	5.25276	4.86554
574	573	550	1.441368284	3.62122	18.901
576	554	575	0.040253172	18.4952	13.7695
578	577	575	1052.292245	0.628406	415.544
580	538	579	0.038241879	29.6975	33.7271
582	579	581	0.002487903	48.8212	5.92994
584	581	583	0.001633698	79.4373	10.3091
585	575	579	0.001416005	19.1236	0.51785
587	586	581	0.01744394	30.6161	16.351
589	588	577	0.035052942	0.628406	0.0138422
592	583	591	0.023451557	79.4373	147.986
594	591	593	0.0007905	79.4373	4.98828
596	593	595	0.000948597	49.4464	2.31927
598	588	597	0.006047714	0.498805	0.00150471
601	597	600	0.004031805	33.4585	4.51349
603	600	602	0.043341813	36.0877	56.445
605	602	604	0.020763757	36.0877	27.0411
607	595	606	0.006416999	46.8172	14.0651
609	606	608	0.033644946	29.8076	29.8933
611	608	610	0.018209935	29.8076	16.1794
615	606	614	0.008221224	17.0095	2.37859
617	616	610	0.143708496	18.2851	48.0482
619	610	618	0.010753003	48.0926	24.8706
621	618	620	0.020118006	48.0926	46.5309
623	620	622	0.002582299	55.5329	7.96356
625	604	624	0.036689388	36.0877	47.7814
626	624	620	0.004855994	7.44028	0.268817
628	624	627	0.009877887	28.6474	8.10652
630	627	629	0.053622785	28.6474	44.0068
632	622	631	0.012858803	55.5329	39.6553
634	631	633	0.001370199	55.5329	4.22556
635	633	629	0.000412801	0.588129	0.000142786
637	629	636	0.008063617	29.2355	6.89209
639	636	638	0.017941547	29.2355	15.3349
641	638	640	0.050421357	18.6176	17.4768
643	633	642	0.002793098	54.9448	8.43217
645	642	644	0.004584901	54.9448	13.8415
646	638	644	0.000412798	10.6179	0.0465388
648	644	3877	0.000843199	65.5632	3.62452
649	640	647	0.0004128	1.8669	0.00143874
651	640	650	0.040881591	16.7507	11.4708
653	647	652	0.010867435	32.4875	11.4699
654	650	652	0.003750794	0.363886	0.000496654
656	650	655	0.106375438	16.3868	28.5647
658	652	657	0.026467584	32.8514	28.5642
659	657	655	0.000447198	0.00541658	1.31E-08
661	655	660	0.006450843	16.3923	1.73339
663	660	662	0.019352567	16.3923	5.20018
665	662	664	0.046566992	16.3923	12.5129
667	657	666	0.005945685	32.846	6.41456
669	666	668	0.007483373	32.846	8.07351
671	668	3881	0.009380552	32.846	10.1203
672	664	670	0.021945461	16.3923	5.89691
674	670	673	0.001422899	40.0117	2.27797
676	673	675	0.089073509	40.0117	142.601
678	362	677	1.594610954	4.30651	29.5737
680	677	686	7.965509728	3.01443	72.3809
682	679	681	0.000326798	1.68404	0.000926797
684	677	683	14.81209891	1.29206	24.7276
685	302	683	1.843901106	2.99227	16.5097
687	686	679	0.000412801	0.540588	0.000120635
689	686	688	0.147618852	2.47383	0.903403
691	688	690	0.170926181	2.47383	1.04604
692	382	679	0.000326801	1.14344	0.000427277
693	382	681	0.000395601	1.84971	0.00135352
695	681	694	0.156179966	3.53375	1.95028
696	690	694	0.000258	3.36548	0.00292222
699	697	104	1.284847696	2.95884	11.2485
704	694	703	0.000808402	6.89921	0.0384792
705	703	106	0.246642854	2.31532	1.32218
707	683	706	1.126840377	4.28433	20.6837
708	706	106	2.068982815	3.82589	30.2846
710	706	709	7.005863337	0.458452	1.47248
711	709	110	0.000963202	0.458452	0.000202444
714	703	713	0.000602002	4.58389	0.0126493
715	713	108	0.075380007	4.32187	1.40799
717	713	716	0.000705203	0.261995	4.84E-05
718	716	112	0.000619202	0.261995	4.25E-05
721	315	720	0.023787736	18.1466	7.83328
723	720	722	0.009614001	4.91675	0.232413
725	722	724	4.618185306	4.91675	111.642
728	727	1351	0.043875749	16.6888	12.2201
730	729	727	0.393437125	13.2299	68.8634
732	731	729	0.0002924	13.2299	0.0511789
733	720	731	0.000739598	13.2299	0.129452
736	734	735	1155.954227	0.305928	108.188
740	739	735	0.000447199	3.50428	0.00549159
741	112	739	0.000275199	16.4239	0.0742335
745	739	744	0.000378399	5.5086	0.0114824
746	735	744	0.0004128	3.81021	0.0059929
748	744	747	0.000258	8.08321	0.0168573
749	739	747	0.000516	7.41093	0.0283397
752	750	751	2.532426321	6.52976	107.977
753	744	751	0.000172	1.2356	0.000262593
754	751	747	0.000275199	7.76535	0.0165947
755	747	724	0.013868003	23.2595	7.50265
757	724	756	0.008110012	28.1763	6.43857
759	756	758	0.008767585	28.1763	6.96062
761	758	760	0.011836231	28.1763	9.39683
763	31	762	0.000464399	0.305928	4.35E-05
764	762	734	0.001066398	0.305928	9.98E-05
766	760	765	0.023453325	7.23562	1.22788
768	765	767	0.012274661	7.23562	0.64263
770	767	769	0.61588438	28.1763	488.953
772	769	771	0.014466487	28.1763	11.485
775	760	774	0.000602002	20.9406	0.263983
777	774	776	0.000980405	20.9406	0.429916
779	776	778	0.001238406	20.9406	0.543052
781	778	780	0.000223601	20.9406	0.098051
782	780	767	0.001221205	20.9406	0.535509
784	783	423	0.004346762	17.9545	1.40124
785	771	783	0.000736999	9.73088	0.0697865
788	786	787	0.000619198	0.398639	9.84E-05
789	787	783	0.005689004	28.696	4.68467
791	783	790	0.013229316	20.4724	5.54466
793	790	792	0.003590809	5.93574	0.126515
795	792	794	0.00245688	22.6407	1.2594
797	794	796	0.01247339	20.066	5.02234
799	771	798	0.012493828	18.4454	4.25081
801	798	800	0.004164619	18.4454	1.41694
803	800	802	0.000258002	2.16829	0.00121299
804	790	802	0.000258	14.5367	0.0545194
805	802	792	0.000257999	16.7049	0.0719956
807	800	806	0.005041368	16.2771	1.33568
808	794	806	0.000464399	2.57462	0.00307835
810	806	809	0.014028096	18.8518	4.98545
811	809	796	0.0004816	8.37925	0.033814
813	796	812	0.055374066	28.4453	44.8051
815	809	814	0.31121899	10.4725	34.1324
817	814	816	0.100083652	10.4725	10.9765
820	812	819	0.028159575	28.4453	22.7849
822	819	821	0.004724769	19.8194	1.85593
824	821	823	0.028348665	19.8194	11.1356
826	823	825	0.030427621	20.0822	12.2713
828	825	827	0.003023843	20.0822	1.2195
830	827	829	0.013985329	20.0822	5.64021
832	829	831	0.003590824	21.8714	1.7177
834	831	833	0.016442072	20.1804	6.69601
838	833	837	0.00321282	19.8853	1.27043
840	816	839	0.205651777	10.4725	22.5545
841	819	839	0.000533201	8.62592	0.0396736
843	839	842	0.008548402	19.0984	3.11802
845	842	844	0.026960357	19.0984	9.83376
846	844	823	0.000378399	0.26287	2.61E-05
848	844	847	0.053920484	18.8356	19.1299
849	847	829	0.000344003	1.78918	0.00110121
851	847	850	0.0059181	17.0464	1.71968
852	831	850	0.000309601	1.69109	0.000885393
854	850	853	0.019069603	18.7374	6.69515
855	833	853	0.000292399	0.295059	2.55E-05
857	853	856	0.00350705	19.0325	1.27038
858	856	837	0.0002924	0.315961	2.92E-05
860	837	859	0.042522886	20.2012	17.3531
862	859	861	0.03023836	20.2699	12.424
864	856	863	0.049536824	18.7166	17.3533
865	863	859	0.000309599	0.068668	1.46E-06
867	863	866	0.035727989	18.6479	12.4242
868	861	866	0.000361201	0.809031	0.000236417
870	866	869	0.156913516	19.4569	59.4029
872	871	869	0.0003268	9.40125	0.0288837
873	861	1651	0.039309884	19.4609	14.8877
875	869	874	0.033536068	28.8581	27.9285
877	874	876	0.033097797	27.0732	24.2593
879	878	876	0.000326801	0.209449	1.43E-05
881	871	880	0.163849235	13.0628	27.9587
882	880	878	0.110034981	14.8478	24.258
883	874	880	0.000412801	1.78494	0.00131519
885	876	884	0.044933959	27.2827	33.4464
887	884	886	0.005479756	5.22778	0.14976
889	886	888	0.062468995	17.8975	20.0101
891	878	890	0.156484633	14.6383	33.5315
893	890	892	0.004913745	6.9623	0.238187
895	894	890	0.0002064	9.38515	0.0181799
897	894	896	0.0003612	12.6697	0.0579803
898	896	886	0.0001548	12.6697	0.0248487
899	884	894	0.0001376	22.0549	0.066931
903	890	901	0.0003956	17.0612	0.115153
905	901	904	0.000189201	17.0612	0.0550734
906	904	530	0.000240801	17.0612	0.0700934
907	892	530	0.0002408	2.97637	0.00213319
909	892	908	1.249795599	3.98593	19.8563
910	888	908	0.0003612	7.38123	0.0196791
912	908	911	0.138405439	11.3671	17.8835
914	911	913	0.002645875	11.3671	0.341876
916	913	915	0.000154799	18.4795	0.0528627
917	888	915	0.165453255	10.5163	18.2979
920	918	919	0.531205874	7.11232	26.8711
921	919	913	0.000344001	7.11232	0.0174013
923	915	922	0.067176769	28.9958	56.4793
925	922	924	0.026204974	28.9958	22.032
927	924	926	0.005700002	6.53467	0.243401
929	926	928	0.002467009	6.53467	0.105346
931	928	930	0.060158484	2.6747	0.430375
933	924	932	0.0004472	22.4611	0.225613
935	932	934	0.001032009	11.1593	0.128516
936	928	934	0.0003612	3.85997	0.00538165
938	932	937	0.001014809	11.3017	0.12962
939	934	937	0.000412801	1.63517	0.00110374
941	937	940	0.000670798	12.9369	0.112267
943	940	942	0.0014276	12.9369	0.238928
944	942	573	0.333266371	3.62122	4.3702
948	934	947	0.002373618	13.3841	0.425196
950	947	949	0.000378401	10.604	0.0425492
952	949	951	41.36662366	0.944983	36.9401
955	942	954	0.0003096	9.31568	0.0268677
957	954	956	0.000344001	5.53847	0.0105521
959	956	958	0.0004128	9.31568	0.0358236
960	947	958	0.000223599	1.24504	0.000346607
962	954	961	0.000326799	3.77721	0.00466255
963	961	956	0.000412799	3.77721	0.00588954
965	947	964	0.0001204	1.53509	0.000283722
966	930	964	0.0001376	1.87983	0.000486246
968	964	967	0.0003096	3.41492	0.00361046
970	967	969	0.0001376	3.41492	0.00160465
971	930	969	0.009023756	0.794869	0.00570136
972	958	949	0.000378402	10.5607	0.0422026
974	949	973	0.000344	20.2198	0.140641
975	969	973	0.010026389	4.20979	0.177691
979	978	586	0.015335964	35.6369	19.4765
980	586	951	0.000636398	5.02141	0.0160465
982	951	981	1.019785264	5.96638	36.302
984	981	983	0.103388168	5.96638	3.68038
986	983	985	0.12688576	5.96638	4.51684
989	973	988	0.114802356	24.4295	68.5141
992	988	991	0.025065999	24.4295	14.9594
993	985	991	0.06109329	5.96638	2.17478
995	991	994	0.089736483	30.3959	82.9085
997	994	996	0.015039608	5.30379	0.423067
999	996	998	0.01804761	12.817	2.96478
1001	998	1000	0.042612083	12.3163	6.46388
1003	1000	1002	0.038100361	4.59727	0.805247
1005	1002	1004	0.000928797	0.161194	2.41E-05
1007	1002	3479	0.043614886	4.43607	0.858285
1009	1006	1008	0.064670844	11.2289	8.15423
1011	1008	1010	0.044617896	11.2289	5.62579
1013	1010	1012	0.011530346	5.89307	0.400429
1015	1012	1014	0.045620236	11.8272	6.38148
1017	1014	1016	0.06416914	11.8272	8.97615
1019	1016	1018	0.012921934	33.5242	14.5226
1021	1018	1020	0.008412978	33.5242	9.45511
1023	1020	1022	0.013034241	16.3982	3.50492
1025	1022	1024	0.031583054	23.9673	18.1423
1027	1024	1026	0.053641038	23.9673	30.8131
1029	1026	1028	0.030079132	23.9673	17.2784
1031	1028	1030	0.035092263	23.9673	20.1581
1033	1030	1032	0.106279693	23.9673	61.0504
1035	1032	1034	0.0155409	9.55418	1.41861
1037	1034	1036	0.045620449	11.5954	6.13382
1039	1036	1038	0.06567336	11.5954	8.83
1041	1038	1040	0.061662748	11.5954	8.29076
1043	1040	1042	0.0581535	11.5954	7.81893
1045	1042	1044	0.037097936	11.5954	4.98794
1047	1044	1046	0.01503972	11.5954	2.02214
1049	1046	1048	0.025567464	11.5954	3.43763
1052	1050	1051	0.433605402	17.5799	134.007
1054	1051	1053	0.004543058	6.43624	0.188197
1058	1051	1057	0.007519758	11.1437	0.933819
1060	1057	1059	0.006517125	11.1437	0.80931
1062	1059	1061	0.044115877	11.1437	5.4784
1064	1061	1063	0.005013172	11.1437	0.622546
1066	1063	1065	0.014538172	11.1437	1.80538
1067	1000	1065	0.0002408	7.719	0.0143476
1069	1065	1068	0.011029044	18.8627	3.92415
1071	1068	1070	0.130343201	18.8627	46.3763
1073	1070	1072	0.00104	43.4343	1.962
1074	1072	1006	0.000361199	7.24384	0.0189533
1075	1072	616	0.001767998	36.1905	2.31564
1077	616	1076	0.017917049	17.9055	5.74433
1079	1076	1078	0.017917049	17.9055	5.74433
1081	1078	1080	0.0001376	0.598293	4.93E-05
1083	1080	1082	0.011029056	5.93416	0.38838
1084	1082	1012	0.0001892	5.93416	0.00666254
1085	1010	1080	0.0001892	5.33587	0.00538681
1087	1078	1086	0.022548036	17.3072	6.75402
1089	1086	1088	0.02939305	17.3072	8.80437
1090	1088	1016	0.000412799	21.6971	0.194331
1092	1091	1088	0.002754994	4.38985	0.0530909
1094	1093	1876	0.000722398	27.7428	0.556003
1096	1091	1095	0.014744013	39.3315	22.8085
1098	1095	1097	0.003686006	39.3315	5.70213
1100	1099	1097	0.019551412	9.5571	1.78579
1102	1099	1101	0.010527711	7.5691	0.603146
1103	1101	1022	0.007018468	7.5691	0.402097
1104	1020	1099	0.008522409	17.1262	2.49968
1106	1097	1105	0.002446	48.8883	5.8461
1108	1105	1107	0.001201999	58.0262	4.04718
1112	1111	1105	2.466855001	9.13798	205.989
1114	1107	1113	0.075699442	23.9481	43.4145
1116	1113	1115	0.027071297	23.9481	15.5257
1118	1115	1117	0.02105555	23.9481	12.0756
1120	1117	1119	0.066675734	23.9481	38.2393
1122	1119	1121	0.050132038	23.9481	28.7513
1124	1121	1123	0.010527709	14.0021	2.06405
1126	1123	1125	0.011530367	14.0021	2.26063
1128	1125	1127	0.012031696	14.0021	2.35892
1130	1121	1129	0.012031716	9.94599	1.19021
1131	1129	1127	0.011029059	22.3178	5.4934
1133	1032	1132	0.00651712	14.4131	1.35385
1134	1132	1129	0.007018489	12.3718	1.07426
1136	1132	1135	0.010527754	2.04128	0.0438673
1137	1135	1034	0.005013219	2.04128	0.0208892
1139	1127	1138	0.001233	36.3202	1.62652
1141	1138	1140	0.001018999	36.3202	1.34422
1143	1140	1142	0.010941003	36.3202	14.4329
1145	1142	1144	0.004718999	36.3202	6.2251
1146	1144	1048	0.008633999	36.3202	11.3896
1150	1149	750	0.006295994	9.51605	0.570135
1152	750	1151	0.056310614	2.98629	0.502174
1156	1151	1155	0.151128155	2.98629	1.34775
1159	33	1158	0.0001892	5.01661	0.00476148
1161	1158	1160	0.0002408	5.01661	0.00606007
1163	1160	1162	0.000481599	5.01661	0.0121201
1165	1162	1164	0.000464401	5.01661	0.0116873
1166	1164	1149	0.0002924	5.01661	0.00735866
1168	1167	1149	0.000825602	4.49943	0.0167142
1171	1169	1270	0.0003956	2.17047	0.00186365
1173	1170	1172	0.08877189	5.87989	3.06912
1175	1172	1174	0.0002924	3.00741	0.00264462
1177	1174	1176	0.000567601	3.00741	0.00513368
1179	1176	1178	0.0002752	4.49943	0.00557139
1181	1178	1180	0.0003268	4.49943	0.00661603
1183	1180	1182	0.0004128	4.49943	0.00835709
1185	1182	1184	0.000344	4.49943	0.00696424
1186	1184	1167	0.000172	4.49943	0.00348212
1188	1187	1176	0.000533196	1.49202	0.00118696
1190	1189	1187	0.000171999	1.49202	0.000382892
1192	1191	1189	0.000326799	1.49202	0.000727494
1194	1193	1191	0.000447198	1.49202	0.000995518
1196	1193	1195	0.00043	0.562604	0.000136105
1198	1195	1197	0.001651199	0.562604	0.000522643
1200	1197	1199	0.000361199	0.562604	0.000114328
1202	1172	1201	0.000326801	2.87246	0.00269644
1204	1201	1203	0.0001376	2.87246	0.00113534
1205	1203	1193	0.0001548	2.05463	0.000653488
1207	1203	1206	0.0002236	0.817844	0.000149559
1209	1206	1208	0.000344	0.817844	0.000230091
1211	1208	1210	0.0004988	0.817844	0.000333632
1213	1210	1212	0.000584801	0.817844	0.000391155
1215	1212	1214	0.000258	0.817844	0.000172568
1216	1214	1199	0.0002236	0.817844	0.000149559
1218	1199	1217	0.001462001	1.38044	0.00278601
1220	1217	1219	0.0001892	1.38044	0.000360543
1222	1219	1221	0.001152405	1.38044	0.00219604
1224	1221	1223	0.0001892	1.38044	0.000360543
1226	1223	1225	0.000344001	1.38044	0.000655533
1228	1225	1227	0.0002752	1.38044	0.000524426
1229	1227	33	0.0007052	1.38044	0.00134384
1232	1230	1231	0.010805162	5.87989	0.373568
1234	1231	1233	0.013612806	5.87989	0.470637
1236	1233	1235	0.010464839	5.87989	0.361802
1238	1235	1237	0.0017016	5.87989	0.0588296
1240	1237	1239	0.0017016	5.87989	0.0588296
1242	1239	1241	0.006551161	5.87989	0.226494
1244	1241	1243	0.000137599	3.05537	0.00128453
1246	1243	1245	0.0002752	3.05537	0.00256907
1248	1245	1247	0.009869281	1.24654	0.0153355
1250	1247	1249	0.000172	0.742715	9.49E-05
1252	1249	1251	0.0001032	1.36704	0.00019286
1254	1251	1253	0.0003096	2.37128	0.00174087
1255	1253	1170	0.000498799	2.37128	0.00280473
1257	1256	1251	0.000240798	1.00424	0.000242844
1259	1256	1258	0.0001204	0.120501	1.75E-06
1261	1258	1260	0.0001032	0.120501	1.50E-06
1262	1247	1260	0.0001892	0.503824	4.80E-05
1263	1260	1249	0.0001204	0.624323	4.69E-05
1265	1264	1256	0.000240798	1.12474	0.000304619
1267	1266	1264	0.000206401	2.46287	0.00125197
1268	1266	1169	0.0002408	0.386838	3.60E-05
1271	1270	1170	0.000361199	3.50861	0.00444649
1272	1264	1270	0.000361198	1.33814	0.000646768
1274	1241	1273	0.000670798	2.82452	0.00535157
1276	1273	1275	0.000326799	1.04844	0.000359226
1277	1245	1275	0.0005676	1.80882	0.00185709
1279	1273	1278	0.0001376	1.77608	0.000434053
1281	1280	1278	0.000344001	0.408807	5.75E-05
1282	1275	1280	0.0001032	0.408807	1.72E-05
1284	1278	1283	0.001169596	2.18489	0.00558335
1286	1283	1285	0.000240801	1.1763	0.000333192
1288	1287	1285	0.000378399	0.549248	0.000114153
1289	1275	1287	0.000980397	2.44846	0.00587744
1291	1287	1290	0.000567602	1.89921	0.00204734
1293	1283	1292	0.000602	1.00858	0.000612375
1295	1292	1294	0.0001548	1.00858	0.000157468
1297	1294	1296	0.000619201	1.00858	0.000629872
1299	1296	1298	0.000258	1.00858	0.000262446
1301	1298	1300	0.000344	0.954844	0.000313634
1303	1300	1302	0.0006536	0.954844	0.000595905
1305	1302	1304	0.0001548	0.954844	0.000141135
1309	1290	1308	0.000361199	2.51082	0.00227708
1311	1308	1310	0.000189201	1.78363	0.000601911
1312	1310	1169	0.000378401	1.78363	0.00120382
1316	1308	1315	0.000309599	0.727186	0.000163716
1318	1315	1317	0.0003956	0.727186	0.000209193
1319	1317	1266	0.000172001	2.84971	0.00139679
1321	1320	1290	0.0001548	0.611606	5.79E-05
1323	1322	1304	0.000567601	0.517808	0.000152188
1324	1320	1322	0.000258001	1.16768	0.000351778
1326	1325	1320	0.000172	1.77928	0.000544524
1328	1298	1327	0.000172	0.05374	4.97E-07
1330	1327	1329	0.0002408	0.05374	6.95E-07
1331	1329	1325	0.000481602	0.05374	1.39E-06
1332	1285	1325	0.000447201	1.72555	0.00133155
1334	1322	1333	0.000412801	0.649874	0.000174341
1336	1333	1335	0.0001376	0.649874	5.81E-05
1338	1335	1337	0.000533201	0.649874	0.00022519
1340	1337	1339	0.000344001	0.649874	0.000145284
1342	1339	1341	0.001290001	0.649874	0.000544814
1344	1341	1343	0.0001548	0.649874	6.54E-05
1346	1343	1345	0.0001376	0.649874	5.81E-05
1347	1345	1317	0.000240801	2.12252	0.00108483
1348	1304	1345	0.000516001	1.47265	0.00111905
1352	1351	313	0.050959105	12.2674	7.66879
1354	1351	1353	0.014585969	4.42137	0.285134
1356	1353	1355	0.019368993	4.42137	0.378635
1360	1355	1359	0.1053649	24.1591	61.4975
1362	1361	1355	0.096223645	19.7377	37.4865
1364	1363	1361	0.135314782	19.7377	52.7155
1372	1371	1363	0.002552397	6.18279	0.0975702
1373	1371	1230	0.005955648	1.11909	0.00745863
1380	1377	1379	0.000739599	4.76079	0.0167631
1381	1379	1230	0.000533198	4.76079	0.012085
1384	1382	1371	0.000309599	7.30189	0.0165071
1387	1385	1386	0.001410399	25.7172	0.932802
1394	1386	1395	0.0001204	25.6176	0.0790137
1396	1395	1382	0.000172	7.30189	0.00917062
1397	1395	1363	0.000670802	13.5549	0.12325
1398	1395	1377	0.0001892	4.76079	0.00428824
1400	1386	1399	147081.9264	0.0996032	1459.17
1402	1399	1401	0.0001204	0.212793	5.45E-06
1404	1401	1403	0.000601998	0.398639	9.57E-05
1405	1403	786	0.0002064	0.398639	3.28E-05
1409	1407	1408	0.000808399	0.0996504	8.03E-06
1410	1408	1411	13989.09434	0.29903	1250.89
1412	1411	1399	0.000223599	0.11319	2.86E-06
1413	1411	1401	0.0002408	0.185842	8.32E-06
1419	1417	1385	0.001771601	26.0156	1.19904
1421	1385	1420	0.0002752	0.298532	2.45E-05
1425	1420	1424	2296.396862	0.298532	204.658
1427	1424	1426	0.000859999	0.298532	7.66E-05
1430	1426	1435	0.000154799	13.3638	0.0276457
1432	1429	1431	0.000412799	28.2974	0.330546
1433	1431	787	0.0002236	28.2974	0.179046
1436	1435	1429	0.000791199	28.2974	0.633547
1438	1155	1437	0.015064913	27.7998	11.6426
1439	1437	1435	0.000172	14.9336	0.0383582
1440	1437	1426	0.000103	10.1983	0.0107125
1445	1442	1444	0.0001204	35.0986	0.148322
1447	1444	1446	0.0002236	18.5071	0.0765857
1449	1446	1448	0.0002408	17.6001	0.0745912
1451	1448	1450	0.0003268	9.64183	0.0303809
1453	1450	1452	0.0008428	9.64183	0.0783508
1455	1452	1454	0.0001892	9.57776	0.017356
1457	1454	1456	0.0008256	9.57776	0.0757352
1459	1456	1458	0.000258	9.57776	0.0236672
1461	1448	1460	0.0004472	7.95819	0.0283224
1463	1460	1462	0.0002752	7.95819	0.0174292
1465	1462	1464	0.0010148	7.95819	0.0642701
1467	1464	1466	0.0003784	7.95819	0.0239651
1468	1466	1458	0.0014448	7.95819	0.0915032
1472	1469	1471	0.000481601	17.5359	0.148096
1474	1471	1473	0.000653603	17.5359	0.200988
1476	1452	1475	0.0003612	0.064084	1.48E-06
1478	1475	1477	0.000946002	13.4761	0.171799
1480	1477	1479	0.000344001	13.4761	0.0624724
1482	1479	1481	0.0004472	28.9674	0.37525
1484	1481	1483	0.000258	15.0784	0.0586584
1485	1483	1473	0.0004128	15.0784	0.0938534
1487	1473	1486	0.031637431	32.6143	33.6525
1489	1486	1488	0.046106649	32.6143	49.0433
1491	1488	1490	0.002012397	33.6163	2.27412
1493	1490	1492	0.015303988	15.9031	3.87051
1494	1495	1417	0.002408012	26.0156	1.62977
1496	1495	1442	6.88001E-05	57.4013	0.22669
1498	1497	1495	0.000596105	100.333	6.00082
1500	1481	1499	0.000412802	13.889	0.0796313
1502	1499	2287	0.000928798	41.2068	1.5771
1503	1490	1501	0.000773999	17.7132	0.242848
1505	1495	1504	0.000670802	16.9176	0.191987
1507	1504	1506	0.000172001	16.9176	0.0492276
1509	1506	1508	0.001462007	16.9176	0.418434
1511	1508	1510	0.000791205	16.9176	0.226447
1513	1510	1512	0.000344001	27.3667	0.257635
1514	1512	1499	0.0002408	27.3667	0.180344
1516	1574	1510	0.000464403	10.4491	0.0507052
1517	1515	1407	24582.78236	0.0996504	244.112
1520	1442	1519	0.0004472	22.3026	0.22244
1522	1519	1521	0.000412798	18.3753	0.139382
1523	1521	1475	0.000257998	13.4121	0.0464098
1524	1521	1479	0.0011696	15.4913	0.280681
1526	1525	1521	0.000601998	10.5281	0.066726
1528	1527	1525	0.000447199	10.5281	0.0495679
1530	1556	1527	0.000292399	3.27526	0.00313666
1536	1519	1535	0.0002064	3.9273	0.00318345
1537	1535	1527	0.0003784	7.25278	0.0199049
1539	1538	1535	0.000567601	3.32548	0.006277
1540	1538	1556	0.000344	8.18487	0.0230453
1541	1444	1538	0.000258001	16.5918	0.0710244
1543	1446	1545	0.000258001	0.907152	0.000212315
1544	1542	1556	0.000172	5.98859	0.00616846
1546	1545	1542	0.000309599	5.98859	0.0111032
1547	1538	1545	0.0002236	5.08145	0.0057736
1557	1556	1554	0.001530802	5.80464	0.0515786
1559	1556	1550	0.002098403	5.09355	0.0544415
1562	1554	1561	0.000172	5.80464	0.00579535
1564	1561	1563	0.002270403	5.80464	0.0764986
1566	1550	1565	0.000240801	5.09355	0.00624739
1568	1565	1567	0.001995205	5.09355	0.0517641
1569	1567	1563	0.000825601	5.09355	0.0214196
1571	1563	1570	0.0004644	10.8982	0.0551572
1572	1570	1515	0.0003612	10.8982	0.0429
1575	1515	1574	0.001152391	10.7986	0.13438
1577	1574	1576	0.000670799	0.349439	8.19E-05
1580	1576	1579	0.000859996	0.349439	0.000105012
1582	1579	1581	0.000172	0.349439	2.10E-05
1584	1581	1583	0.001909207	0.199381	7.59E-05
1586	1583	1585	0.002098407	0.199381	8.34E-05
1587	1585	1408	0.000533203	0.199381	2.12E-05
1590	1499	1589	0.001014798	0.0490001	2.44E-06
1592	1591	1589	0.00190919	0.150058	4.30E-05
1593	1581	1591	0.000257999	0.150058	5.81E-06
1595	1589	1594	0.002786383	0.199059	0.000110409
1597	1594	1596	0.001135195	0.199059	4.50E-05
1599	1596	1598	0.000533198	0.199059	2.11E-05
1602	1598	1601	0.005847975	0.199059	0.000231723
1604	1601	1603	0.000911595	0.199059	3.61E-05
1606	1603	1605	0.000550397	0.199059	2.18E-05
1608	1605	1607	0.003181997	0.199059	0.000126085
1610	1607	1609	0.000584797	0.199059	2.32E-05
1613	1609	1612	0.0003096	2.86698	0.00254478
1614	1612	1426	0.0004128	2.86698	0.00339304
1616	1615	1609	0.000516001	2.66792	0.00367279
1617	1437	1615	0.000154801	2.66792	0.00110184
1623	1359	1622	0.118737877	24.1591	69.3028
1625	1622	1624	0.037283044	24.1591	21.7607
1627	1624	1626	0.062408025	24.1591	36.4252
1629	1626	1628	0.068082027	24.1591	39.7369
1631	1628	1630	0.026204545	24.1591	15.2946
1633	1630	1632	0.065244941	24.1591	38.081
1635	1632	1634	0.087129006	24.1591	50.8539
1637	1634	1636	0.04863002	24.1591	28.3835
1639	1636	1643	0.02107298	24.1591	12.2995
1641	1638	1640	0.093612775	0.99457	0.0925989
1644	1643	1638	0.017831019	0.99457	0.0176379
1646	1643	1647	0.014931017	20.1613	6.06913
1648	1647	1645	0.077641345	20.1613	31.5595
1652	1651	871	0.088155856	22.4641	44.4866
1667	1662	1666	0.034851459	0.99457	0.034474
1669	1666	1668	0.020667742	0.99457	0.0204439
1671	1670	1668	0.362755598	12.9686	61.0099
1675	1673	1674	0.011656062	20.0809	4.70022
1677	1674	1676	0.000223599	7.11232	0.0113108
1679	1676	1678	0.0003268	7.11232	0.0165312
1681	1678	1680	0.000447201	7.11232	0.0226217
1682	1680	918	0.000206401	7.11232	0.0104408
1683	1674	1670	0.00867856	12.9686	1.4596
1685	1668	1684	0.021073082	13.9631	4.10858
1687	1684	1686	0.094423622	13.9631	18.4096
1689	1686	1688	0.066866302	13.9631	13.0368
1691	1688	1690	0.057140612	13.9631	11.1406
1693	1690	1692	0.06484033	13.9631	12.6418
1695	1692	1694	0.00769975	7.80016	0.468472
1697	1694	1696	0.109417602	7.80016	6.65724
1699	1698	1700	0.0002408	29.4742	0.20919
1701	1692	1700	0.0008428	6.16296	0.0320113
1703	1700	1702	0.001135199	35.6369	1.44169
1704	1702	978	0.0003956	35.6369	0.502407
1706	1705	1698	1.052126224	29.4742	914.012
1708	1696	1707	0.100096814	7.80016	6.09014
1710	1707	1709	0.04457756	7.80016	2.71221
1712	1709	1711	0.019857338	7.80016	1.20817
1714	1711	1713	0.000343999	8.33207	0.0238816
1716	1713	1715	0.0003784	8.33207	0.0262698
1720	1715	1719	0.003549245	3.91535	0.0544098
1721	1719	1050	0.001277726	3.91535	0.0195875
1723	1715	1722	0.000206401	11.668	0.0280999
1725	1722	1724	0.000172001	11.668	0.0234166
1726	1724	1050	0.0001204	13.6645	0.0224809
1729	1727	1730	0.000974277	39.0872	1.48851
1731	1730	1728	0.03028277	53.6649	87.212
1732	1734	1730	0.000602001	14.5776	0.127929
1735	1734	1724	0.000997598	1.99649	0.0039764
1737	1727	1736	0.001623992	16.5741	0.446112
1738	1736	1734	0.003328986	16.5741	0.914475
1740	1739	1715	0.035208599	7.25123	1.85128
1742	1741	1711	0.008915493	0.531997	0.00252327
1744	1746	1741	0.044577288	0.531997	0.0126163
1747	1746	1743	0.03606731	0.351847	0.004465
1749	1743	1751	0.020667821	0.351847	0.0025586
1752	1751	1748	0.025125516	0.95678	0.0230006
1755	1753	1754	0.000567602	1.32677	0.00099916
1756	1754	1746	0.000791199	0.883846	0.000618072
1758	1754	1757	0.0002408	0.442931	4.72E-05
1760	1757	1759	0.002631595	0.442931	0.000516287
1762	1759	1761	0.002029582	1.13996	0.00263746
1764	1761	1763	0.000240798	1.13996	0.000312919
1766	1753	1765	0.002064008	0.69703	0.0010028
1770	1765	1769	0.000739602	0.69703	0.000359336
1771	1769	1759	0.0004128	0.69703	0.000200559
1774	1772	3156	15.79175808	9.27498	1358.49
1775	1773	1753	0.000258001	2.02379	0.0010567
1777	1748	1776	0.035256734	0.95678	0.032275
1779	1776	1778	0.005268229	2.33285	0.0286707
1781	1778	1780	0.029583392	15.3241	6.94701
1783	1780	1782	0.010131286	15.3241	2.37911
1790	1788	1810	0.030393974	4.83881	0.711647
1794	1763	1793	0.000257998	1.13996	0.000335271
1795	1793	1788	0.0005504	4.83881	0.0128871
1797	1796	1793	0.0001204	3.69887	0.00164727
1799	1796	1798	0.0002924	14.3673	0.0603571
1800	1798	1776	0.000189199	1.37607	0.000358261
1801	1798	1778	0.000171999	12.9913	0.029029
1804	1802	3705	1.765085558	20.9238	772.764
1805	1803	1796	0.000257999	18.0665	0.0842106
1807	1803	1806	0.000172	19.7329	0.0669745
1809	1806	1808	0.000533199	19.7329	0.207621
1811	1810	1070	0.325646368	24.5717	196.615
1812	1808	1810	0.001375997	19.7329	0.535796
1814	1782	1813	0.048224871	7.55714	2.75414
1816	1813	1815	0.014183782	3.55729	0.179486
1818	1815	1817	0.024720257	5.4033	0.721724
1821	1782	1820	0.013778492	7.76712	0.831231
1823	1820	1822	0.033636037	7.76712	2.0292
1825	1822	1824	0.008915535	1.84603	0.0303826
1827	1824	1826	0.008510262	1.84603	0.0290015
1828	1826	1815	0.004052524	1.84603	0.0138103
1831	1822	1830	0.023909767	5.92114	0.838274
1832	1817	1830	0.016615161	1.61536	0.0433554
1834	1813	1833	0.017020441	3.99986	0.272308
1836	1833	1835	0.02472023	3.99986	0.395496
1837	1835	1817	0.014588959	3.99986	0.233407
1839	1830	1840	0.08348147	7.5365	4.74165
1841	1840	1838	0.010941768	4.105	0.18438
1843	1817	1842	0.032014764	7.78776	1.94167
1845	1842	1846	0.049035267	7.78776	2.97395
1847	1846	1844	0.006583995	28.7865	5.45591
1849	1848	1846	0.901390806	29.9563	808.89
1850	1846	1851	0.0002752	8.95741	0.0220807
1852	1851	1838	0.0002064	12.3889	0.0316793
1854	1840	1853	0.004863003	3.4315	0.0572628
1855	1853	1851	0.008105006	3.4315	0.095438
1857	1838	1856	0.019857361	16.4939	5.40217
1858	1844	1856	0.0004988	0.155556	1.21E-05
1861	1844	1860	0.008915526	28.6309	7.30831
1863	1860	1862	0.005341013	28.6309	4.37818
1865	1856	1864	0.048224812	16.6495	13.3682
1867	1862	3873	0.010536457	12.6524	1.68671
1869	1866	1868	0.019451974	3.87126	0.29152
1871	1868	1870	0.000567599	27.7428	0.43686
1872	1870	1093	0.000309599	27.7428	0.238287
1874	1864	1873	0.018641366	13.0093	3.1549
1875	1873	1866	0.013778386	13.0093	2.33188
1877	1876	1091	0.096671264	43.7214	184.793
1879	1862	1878	0.004457737	15.9786	1.13813
1880	1878	1876	0.029583105	15.9786	7.55303
1882	1866	1881	0.008510242	9.13798	0.710628
1884	1881	1883	0.049035194	9.13798	4.09457
1886	1883	1885	0.047009031	9.13798	3.92538
1888	1885	1887	0.101717451	2.76417	0.777186
1890	1887	1889	0.00405249	2.76417	0.0309636
1892	1889	1891	0.030798877	2.76417	0.235323
1894	1891	1893	0.040119567	2.76417	0.306539
1896	1885	1895	0.010941741	6.37383	0.444516
1897	1895	1893	0.022288743	6.37383	0.905496
1899	1893	1898	0.003242004	9.13798	0.270716
1901	1898	1900	0.009725999	9.13798	0.812147
1903	1900	1902	0.020262464	9.13798	1.69197
1904	1902	1111	0.02188349	9.13798	1.82733
1909	1501	1910	0.0002236	57.9182	0.750069
1911	1910	1912	0.0003096	26.0335	0.209829
1913	1912	1914	0.000516002	25.9778	0.348222
1917	1914	1916	0.013918756	14.1051	2.76919
1919	1916	1918	0.03380377	14.1051	6.72539
1920	1918	313	0.018890763	14.1051	3.75839
1922	313	1921	0.014559989	26.3725	10.1266
1924	1921	1923	0.0001892	26.3725	0.13159
1926	1923	1925	0.002270396	26.3725	1.57908
1930	1927	1929	0.048151991	17.691	15.0702
1931	1925	1994	0.0002064	26.3725	0.143553
1933	1492	1946	0.031802953	15.9031	8.04324
1935	1910	1934	0.000206401	31.8844	0.20983
1936	1912	1934	0.0002408	0.0555826	7.44E-07
1938	1934	1937	0.0003956	31.9401	0.403579
1940	1937	1939	0.000257999	31.9401	0.263203
1942	1939	1958	0.001393199	31.9401	1.4213
1943	1941	1944	0.000516003	17.8318	0.164075
1945	1944	1927	0.000481599	5.6412	0.015326
1947	1946	2007	0.156158462	28.0937	123.249
1948	1944	1946	0.000911595	12.1907	0.135475
1951	1914	1950	0.027922358	11.8728	3.93603
1952	1950	1927	0.043434578	12.0498	6.3066
1954	1953	1956	0.000138	17.9345	0.0443873
1955	1953	1950	0.000756796	0.176974	2.37E-05
1957	1956	1941	0.019130046	17.8318	6.08284
1959	1958	1953	0.006695009	18.1115	2.19614
1961	1956	1962	0.008130064	0.10279	8.59E-05
1963	1962	1960	0.000584802	13.9313	0.113499
1964	1958	1962	0.011717044	13.8285	2.24062
1968	1960	1967	21.07218778	4.40335	408.579
1970	1967	1969	0.063773205	4.40335	1.23653
1972	1969	1971	0.000464401	4.40335	0.00900449
1974	1971	1973	0.001479203	4.40335	0.028681
1975	1960	1973	0.039642735	5.71961	1.29687
1977	1973	1976	0.001685589	10.123	0.172731
1979	1976	1978	0.095831643	10.123	9.82036
1981	1960	1980	27.06292511	3.80836	392.51
1983	1982	1980	0.099548838	10.8822	11.7888
1984	1980	1978	0.026144105	14.6905	5.64218
1985	1978	1155	0.112671915	24.8135	69.3732
1987	1929	1986	0.002212004	29.3154	1.90098
1989	1986	1988	0.002808006	29.3154	2.41318
1991	1988	1990	0.006977008	29.3154	5.99599
1993	1990	1992	0.107659653	26.7286	76.914
1995	1994	1929	0.000584801	11.6244	0.0790222
1997	1994	1996	0.049999896	14.7481	10.8753
1999	1998	1996	0.04959094	2.58688	0.33186
2001	2000	1998	0.007395425	2.58688	0.0494898
2003	2002	2000	0.004350019	2.58688	0.0291101
2004	1990	2002	0.011310249	2.58688	0.0756876
2008	2007	1932	0.000705205	13.7057	0.13247
2010	2007	2009	0.000670803	14.388	0.138866
2012	2009	2011	0.000292401	14.388	0.0605312
2014	2011	2017	0.000722403	14.388	0.149548
2016	1932	2015	0.000688004	13.7057	0.129239
2018	2017	2020	0.000138001	28.0937	0.108918
2019	2015	2017	0.000464402	13.7057	0.0872362
2021	2020	2013	0.000928797	27.5935	0.707187
2023	2020	2022	0.001307201	0.500295	0.000327186
2025	2022	2024	0.0001204	0.500295	3.01E-05
2027	2024	2026	1026.268646	0.500295	256.87
2028	2026	1982	0.000498799	0.500295	0.000124847
2031	2005	2030	0.004785211	17.3349	1.43795
2033	2030	2032	0.01087502	17.3349	3.26793
2035	2032	2034	0.016965863	23.7636	9.58077
2036	2013	2032	0.000963202	6.42871	0.0398075
2038	2013	2037	0.041219613	21.1647	18.4641
2039	2034	2037	0.015660251	23.7636	8.84348
2041	2037	2040	0.080447045	44.9285	162.388
2043	2040	2042	0.032625966	44.9285	65.8578
2045	2042	2044	0.058388856	44.9285	117.862
2047	2044	2046	0.006694968	1.0017	0.00671775
2049	2046	1982	0.452262571	10.3819	48.7466
2051	1992	2050	0.089203652	26.7286	63.7287
2053	2050	2052	0.028709241	26.7286	20.5104
2055	2052	2054	0.023070385	26.7286	16.4819
2057	2054	2056	0.119451628	26.7286	85.3384
2061	2056	2060	0.038449896	26.7286	27.4693
2063	2060	2064	0.128166553	26.7286	91.5645
2065	2064	2066	0.010685897	10.4839	1.17451
2067	2066	2062	0.024712005	46.8897	54.3329
2069	1645	2068	0.0003612	20.1613	0.14682
2071	2068	2070	0.000275201	20.1613	0.111863
2072	2070	2066	0.000780005	36.4059	1.03381
2073	2064	2070	0.000533203	16.2447	0.140707
2075	2062	2074	0.01639697	46.8897	36.0511
2077	2074	2076	0.028406964	46.8897	62.4568
2079	2076	2078	0.008082982	46.8897	17.7716
2081	2078	2080	0.010341653	20.6805	4.42295
2083	2080	2082	0.043779614	20.6805	18.7238
2085	2082	2084	0.011054774	20.6805	4.72794
2087	2078	2086	0.013788808	26.2093	9.47191
2089	2086	2088	0.019168983	26.2093	13.1677
2090	2088	2084	0.007620995	26.2093	5.23507
2092	2084	2091	0.009238012	46.8897	20.3111
2094	2091	2093	0.007239119	31.1713	7.03389
2096	2093	2095	0.007928555	31.1713	7.70378
2098	2095	2101	0.011910977	31.1713	11.5733
2100	2097	2099	0.022778759	15.2088	5.2689
2102	2101	2097	0.075169602	15.2088	17.3873
2104	2091	2103	0.059999744	15.7186	14.8244
2107	2105	2099	0.021708948	31.6811	21.7891
2108	2101	2105	0.003403011	15.9625	0.867092
2118	2099	2117	0.033718965	46.8897	74.136
2120	2117	2121	0.008847999	46.8897	19.4536
2122	2121	2119	0.01585713	27.8427	12.2927
2125	2121	2124	0.010549984	19.0472	3.82749
2127	2124	2128	0.0002236	19.0472	0.081121
2129	2128	2126	0.000257998	10.2916	0.0273264
2131	2128	2136	0.0002408	8.75571	0.0184603
2133	2130	2132	0.000223601	3.51534	0.00276317
2135	2132	2138	0.000240801	3.51534	0.00297572
2137	2136	2130	0.000223601	3.51534	0.00276317
2139	2138	2134	0.0003612	8.75571	0.0276905
2140	2136	2138	0.0003096	5.24037	0.00850206
2141	2126	2134	0.000257998	10.2916	0.0273264
2143	2134	2142	0.051018503	19.0472	18.5093
2145	2142	2144	0.045502884	3.43486	0.536855
2147	2144	2146	0.059291691	1.92209	0.219049
2149	2119	2156	0.047916194	14.6217	10.2442
2151	2119	2150	0.011720426	13.221	2.04867
2153	2150	2154	0.046881647	13.221	8.19467
2155	2154	2152	0.037230003	11.9733	5.33729
2157	2156	2158	0.003791928	15.8693	0.954939
2159	2158	2160	0.008962732	2.98955	0.0801036
2161	2160	2148	0.016891366	11.4008	2.19551
2162	2154	2156	0.000533204	1.24762	0.000829961
2164	2158	2165	0.000240799	12.8798	0.039946
2166	2165	2163	0.000344	4.46846	0.0068687
2168	2167	2160	0.0002752	8.4113	0.0194704
2169	2165	2167	0.0002924	8.4113	0.0206873
2173	2172	2163	0.000516002	15.6124	0.125774
2175	2163	2174	0.000309603	20.0809	0.124845
2177	2174	2176	0.000636404	20.0809	0.256625
2179	2176	2178	0.000240801	20.0809	0.0971013
2181	2178	2180	0.013953066	20.0809	5.62647
2182	2180	1673	0.00467902	20.0809	1.88678
2186	2184	2172	0.000189201	15.6124	0.0461171
2188	2187	2184	0.001840408	15.6124	0.448594
2190	2189	2187	0.000361201	15.6124	0.0880417
2192	2191	2189	0.000928803	15.6124	0.226393
2193	2142	2191	0.001479206	15.6124	0.360552
2195	2148	2152	0.016201943	11.4008	2.1059
2197	2152	2196	0.018937932	23.3742	10.3468
2199	2196	2198	0.045958912	23.3742	25.1098
2201	2198	2200	0.045958912	23.3742	25.1098
2203	2200	2204	0.009699879	23.3742	5.29956
2205	2204	2202	0.011085539	12.2891	1.67416
2207	2202	2213	0.010854735	11.6247	1.46684
2209	2204	2208	0.005773749	11.0851	0.709475
2211	2208	2217	0.007852298	11.0851	0.964886
2212	2210	2206	0.000430003	11.4356	0.0562327
2216	2215	2210	0.024249893	11.4356	3.17123
2218	2217	2215	0.01062381	11.7494	1.4666
2219	2202	2217	0.0004472	0.664327	0.000197363
2220	2215	2213	0.00043	0.31381	4.23E-05
2222	2221	2223	0.007390407	9.84124	0.715761
2224	2223	2206	0.003002353	8.31277	0.207469
2226	2221	1705	0.000808401	2.09731	0.00355592
2228	2223	2227	0.001186799	1.52848	0.00277266
2231	2227	2232	0.000206399	1.52848	0.000482201
2233	2232	2230	0.000430002	17.0344	0.124774
2234	2230	1705	0.000412799	27.3769	0.309391
2237	2235	2236	0.000997594	10.3426	0.106712
2238	2236	2230	0.001186788	10.3426	0.12695
2240	2239	2232	0.44389612	15.5061	106.73
2242	2241	2235	0.208385005	9.34329	18.1914
2244	2243	2235	0.0002924	0.999278	0.000291978
2246	2245	2243	0.000688	0.999278	0.000687007
2254	2044	2253	0.013956004	43.9268	26.929
2256	2253	2255	0.031088011	43.9268	59.9863
2258	2255	2265	0.016170028	43.9268	31.2011
2260	2259	2046	0.396588331	9.38019	34.895
2262	2261	2259	0.474538765	9.38019	41.7537
2266	2265	2257	0.005365992	43.1857	10.0076
2267	2265	2261	0.012194998	0.74111	0.00669803
2271	2269	2270	0.213890807	8.63909	15.9635
2272	2270	2261	0.39855628	8.63909	29.7458
2274	2257	2273	0.002493999	43.1857	4.65132
2275	2273	2269	0.007413022	1.57047	0.0182833
2278	2273	2277	0.04434207	41.6152	76.7927
2280	2277	2279	0.053811099	41.6152	93.1914
2282	2279	2310	0.0003268	28.5453	0.266288
2285	2283	2284	0.215180954	7.06862	10.7516
2286	2284	2269	0.164928168	7.06862	8.2407
2288	2287	1501	0.051786226	40.2048	83.7086
2289	2287	1488	0.000963194	1.00195	0.000966954
2293	2296	2292	0.045863703	2.09706	0.201693
2295	2294	2283	0.367222201	7.06862	18.3484
2297	2294	2296	0.064973341	0.584305	0.0221827
2309	2144	2307	0.001221209	1.51275	0.00279463
2311	2310	2323	0.0015824	19.4508	0.598675
2313	2279	2312	0.000688006	13.0698	0.117525
2315	2312	2316	0.001204007	13.0698	0.205668
2317	2316	2318	0.001100802	22.1643	0.540776
2319	2318	3663	0.000292401	20.7529	0.125932
2322	2310	2316	0.000688001	9.09453	0.0569049
2324	2323	2326	0.000774002	20.8622	0.33687
2325	2318	2323	0.000498799	1.41161	0.000993929
2327	2326	2328	0.0003096	9.93748	0.0305741
2329	2328	2352	0.000636399	9.07141	0.0523696
2331	2326	2330	0.000258002	10.9249	0.0307934
2332	2328	2330	0.0002924	0.86609	0.000219333
2343	2307	2342	0.000533204	1.51275	0.00122019
2347	2330	2348	0.0002924	11.791	0.0406517
2349	2348	2350	0.0003096	6.00414	0.011161
2351	2350	2292	0.000911601	7.92622	0.0572713
2353	2352	2354	0.0004988	8.88138	0.0393448
2355	2354	2281	0.031651942	14.8583	6.98777
2356	2348	2357	0.000343998	5.78683	0.0115196
2358	2352	2357	0.000584801	0.19003	2.11E-05
2360	2357	2359	0.000533201	5.97685	0.0190474
2361	2359	2354	0.000567599	5.97685	0.0202762
2364	2146	2363	0.0002408	1.92209	0.000889617
2366	2363	2365	0.000808398	1.92209	0.00298657
2367	2365	2350	0.000309599	1.92209	0.00114379
2370	2292	2369	2.043983938	10.0233	205.352
2372	2369	2371	0.685995537	10.0233	68.9196
2373	2314	2281	0.009453323	13.0999	1.62226
2375	2281	2374	0.029125704	27.958	22.7661
2377	2374	2376	0.047010697	27.958	36.7459
2379	2376	2378	0.082523405	27.958	64.5044
2381	2378	2380	0.017118409	27.958	13.3806
2383	2380	2382	0.011752204	11.1559	1.46261
2385	2382	2384	0.019672393	11.1559	2.44831
2392	2391	2389	0.000619196	10.4919	0.0681611
2394	2371	2393	0.080499436	10.0233	8.0875
2395	2393	2391	0.275182686	15.3141	64.5363
2398	2389	2397	0.000361198	0.599512	0.00012982
2400	2397	2399	0.001685599	0.599512	0.000605829
2402	2399	2401	0.000739595	10.4919	0.0814146
2405	2380	2404	0.000928803	16.8021	0.262211
2407	2408	2404	887.2589046	0.350262	108.852
2409	2406	2414	0.000361001	2.84685	0.00292575
2410	2384	2406	0.000498801	3.84548	0.00737613
2412	2406	2411	0.0007396	0.998636	0.000737584
2415	2414	2408	0.000327001	1.32614	0.000575079
2417	2414	2416	0.000137599	1.52073	0.000318214
2419	2416	2418	0.000189199	1.52073	0.000437545
2420	2408	2418	0.0001892	0.975883	0.000180184
2424	2418	2423	0.000481602	2.4966	0.00300183
2425	2411	2423	0.0001892	0.998636	0.000188684
2427	2423	2426	0.0004644	3.49524	0.00567344
2429	2426	2428	0.0001032	3.49524	0.00126076
2430	2428	2442	3.758681969	3.49524	45.9187
2432	2404	2433	0.05546442	17.1524	16.3179
2436	2433	2393	0.030253515	17.1524	8.90073
2438	2393	2437	0.00137601	11.8615	0.193598
2440	2439	2401	0.0015136	0.999349	0.00151163
2443	2442	2239	0.002184404	14.9864	0.4906
2445	2401	2444	0.0002408	11.4912	0.0317971
2446	2444	2442	0.000636401	11.4912	0.0840353
2448	2437	2447	0.000378401	6.15692	0.0143443
2450	2447	2456	0.002098399	6.15692	0.0795454
2451	2449	2245	0.001358801	0.999278	0.00135684
2457	2456	2458	0.002425203	5.37006	0.0699369
2459	2458	2449	0.0003096	3.802	0.00447533
2461	2437	2460	0.0007396	5.70466	0.0240689
2463	2460	2462	0.002149998	5.70466	0.0699677
2466	2462	2439	0.0007568	0.212493	3.42E-05
2469	2456	2439	0.0002924	0.786853	0.000181036
2471	2462	2472	0.002390802	5.49217	0.072116
2473	2472	2470	0.0002924	5.38827	0.00848937
2475	2458	2472	0.000945994	1.56807	0.00232605
2477	2472	2476	0.017158078	1.67198	0.0479657
2479	2478	2476	0.000292399	7.67136	0.0172076
2480	2470	2478	0.000378399	7.67136	0.0222687
2483	2482	2470	0.0004128	2.28307	0.00215168
2484	2449	2482	0.000533201	2.80272	0.00418842
2486	2482	2485	0.015542983	0.519657	0.00419728
2487	2485	2239	0.001100797	0.519657	0.000297263
2490	2476	2489	2.085178851	9.34329	182.03
2492	2489	2491	0.231020359	9.34329	20.1674
2493	2491	2241	1.914886763	9.34329	167.164
2495	2391	2494	2.919974884	4.82229	67.9025
2497	2384	2496	0.104240675	7.31041	5.57084
2499	2496	2656	0.02708221	7.31041	1.44733
2501	2494	2510	1.226851723	11.2885	156.338
2503	2500	2506	0.049685448	0.998505	0.049537
2507	2506	2502	0.133768463	9.98517	13.3372
2509	2500	2508	0.107014834	3.99348	1.70666
2511	2510	2508	0.160522701	0.577811	0.053593
2513	2512	2721	0.0001548	1.13762	0.000200339
2516	2514	2533	0.779833929	8.10973	51.2879
2517	2515	2508	12.52598624	4.53233	257.309
2520	2518	2519	0.000980401	7.98769	0.0625527
2522	2519	2526	0.001496402	7.98769	0.0954752
2525	2514	2524	0.0003268	3.17302	0.00329024
2527	2526	2538	0.0007052	5.74286	0.0232578
2528	2526	2524	0.000395601	2.24482	0.00199352
2532	2524	2536	0.039502619	5.41784	1.15952
2534	2533	2515	0.263558558	16.1053	68.362
2535	2531	2533	0.158136456	7.99548	10.1093
2537	2536	2531	0.625954003	7.99548	40.0158
2539	2538	2541	0.002339195	3.16522	0.0234355
2540	2538	2536	0.17131411	2.57764	1.13825
2542	2541	2559	0.001513603	5.42695	0.0445783
2545	2543	2561	0.001393201	5.83597	0.0474504
2546	2515	2543	0.00043	8.09769	0.0281962
2548	2543	2541	0.000636401	2.26174	0.00325549
2558	2557	2521	1.459462911	5.75146	48.278
2562	2561	2563	0.0002924	5.11602	0.00765319
2564	2563	2506	0.602660435	8.98667	48.671
2566	2515	2565	4.890054366	3.47521	59.0576
2568	2565	2567	2.533401161	3.47521	30.5961
2570	2567	2569	3.181479757	3.47521	38.423
2571	2569	2563	1.207783215	3.47521	14.5865
2572	2557	2563	0.000773999	0.395423	0.000121022
2573	2561	2559	0.000739602	0.719946	0.000383352
2576	2574	2575	0.000928794	11.2828	0.118237
2578	2575	2577	0.005607165	11.2828	0.713801
2580	2577	2579	0.001014795	11.2828	0.129185
2581	2579	2514	0.001754393	11.2828	0.223337
2584	2582	2827	0.037688275	6.50247	1.59354
2586	2583	2597	0.000447199	0.452032	9.14E-05
2588	2585	2587	0.002339209	7.98769	0.149249
2590	2587	2589	0.0002408	7.98769	0.0153638
2591	2589	2518	0.001169601	7.98769	0.0746243
2593	2592	2605	0.002459595	7.98769	0.15693
2595	2592	2594	0.000549997	11.2828	0.0700155
2596	2594	2574	0.002132786	11.2828	0.271507
2598	2597	2599	0.001238401	0.963857	0.0011505
2600	2599	2601	0.000653601	2.40021	0.0037654
2602	2601	2603	0.001169602	4.1197	0.0198504
2604	2603	2585	0.002493997	7.98769	0.159125
2606	2605	2611	0.000481601	5.13699	0.0127088
2608	2607	2609	0.000292399	0.963857	0.000271645
2610	2609	2583	0.000412799	0.452032	8.43E-05
2612	2611	2607	0.000722402	2.38733	0.00411722
2614	2605	2613	0.000326801	2.85071	0.00265576
2616	2613	2615	0.000791202	2.85071	0.00642974
2618	2615	2620	0.000911601	2.85071	0.00740817
2619	2617	2601	0.001186794	1.71948	0.00350889
2621	2620	2617	0.000739597	1.71948	0.0021867
2623	2611	2637	0.000584798	2.74964	0.00442138
2624	2622	2625	0.000980396	1.90471	0.0035568
2626	2625	2603	0.000997599	3.868	0.0149255
2627	2607	2628	0.000292399	1.42348	0.000592487
2629	2628	2639	0.000172	1.11836	0.000215125
2630	2620	2631	0.000842797	1.13124	0.00107853
2632	2631	2599	0.000412799	1.43636	0.000851658
2634	2628	2633	0.000344	0.305122	3.20E-05
2635	2633	2631	0.001307194	0.305122	0.000121699
2636	2609	2597	0.0006708	0.511825	0.000175726
2638	2637	2622	0.001771596	1.90471	0.00642721
2640	2639	2625	0.002459603	1.96329	0.00948056
2641	2637	2639	0.000705201	0.844935	0.000503454
2644	2642	2658	0.205462478	16.771	57.7897
2647	2643	2582	0.005268246	6.86251	0.248103
2650	2649	2668	0.000515997	17.219	0.15299
2652	2651	2649	0.001049201	6.24974	0.040981
2654	2651	2653	0.00043	3.77094	0.00611459
2655	2653	2643	0.0002236	3.77094	0.00317959
2657	2656	2649	0.000687998	10.9692	0.0827822
2659	2658	2643	0.025530697	3.09158	0.244019
2661	2660	2656	0.001909204	3.65876	0.0255576
2662	2660	2651	0.000670794	10.0208	0.0673587
2663	2658	2660	0.000894403	13.6794	0.167366
2667	2666	2671	0.001032001	7.78042	0.0624721
2669	2668	2666	0.0002752	8.31445	0.0190246
2672	2671	2673	0.0002752	8.88924	0.0217459
2674	2673	2845	0.000395597	15.4782	0.0947751
2676	2668	2675	0.0002408	8.90455	0.0190933
2677	2666	2675	0.0002408	0.534042	6.87E-05
2679	2675	2678	0.000447199	9.43849	0.0398388
2681	2678	2680	0.0003784	9.43849	0.0337098
2683	2680	2682	0.001823201	9.43849	0.16242
2685	2682	2684	0.002167201	6.3626	0.0877341
2687	2684	2686	0.000498801	6.3626	0.0201928
2689	2688	2697	0.000447198	4.77795	0.010209
2691	2690	2692	0.000275201	7.68	0.016232
2693	2692	2959	0.000464401	14.9849	0.10428
2694	2686	2690	0.000361201	2.90205	0.003042
2695	2686	2692	0.000361201	7.30485	0.019274
2696	2688	2686	0.000963203	3.84431	0.0142349
2698	2697	2690	0.0003096	4.77795	0.0070678
2699	2682	2494	0.000860001	6.46624	0.0359586
2702	2701	2688	0.001393195	8.62235	0.103577
2703	2701	2682	0.00086	3.39036	0.0098853
2705	2704	2706	0.0004816	5.72231	0.0157699
2707	2706	2512	0.001066399	5.31705	0.0301482
2709	2704	2708	0.000378401	6.46892	0.0158349
2710	2706	2708	0.0003956	0.405259	6.50E-05
2712	2708	2719	0.0002064	6.87419	0.00975332
2714	2711	2713	0.0003268	3.14863	0.00323985
2716	2713	2715	0.000945998	3.14863	0.0093785
2718	2715	2717	0.000481599	3.14863	0.00477451
2720	2719	2711	0.000584799	3.14863	0.00579762
2722	2721	2728	0.000429999	4.86311	0.0101694
2723	2719	2721	0.001479198	3.72549	0.0205302
2725	2717	2724	0.000773998	3.14863	0.00767332
2727	2726	2724	0.0002408	0.54622	7.18E-05
2729	2728	2736	0.000567598	4.31689	0.0105775
2730	2728	2726	0.000309599	0.54622	9.24E-05
2733	2731	2732	0.0004816	2.06128	0.00204626
2735	2732	2734	0.0002924	2.06128	0.00124237
2737	2736	2966	0.000722396	1.38618	0.00138808
2738	2736	2761	0.000808402	2.93071	0.00694341
2751	2750	2502	0.133895247	5.75146	4.42916
2752	2521	2750	0.281180443	5.75146	9.30125
2762	2761	2500	0.000860001	4.99198	0.0214311
2763	2734	2761	0.0004988	2.06128	0.00211934
2765	2510	2772	0.001581995	10.7107	0.181485
2768	2508	2770	0.001616794	9.10361	0.133993
2771	2770	3774	0.001032001	6.68944	0.0461806
2773	2772	2856	0.001031999	7.48129	0.0577607
2774	2772	2770	0.000585	3.22943	0.00610109
2776	2770	2775	0.171682678	5.64362	5.46817
2778	2502	2777	0.372689323	15.7366	92.293
2780	2777	2779	0.0003612	18.7321	0.126742
2782	2779	2781	0.001513601	18.7321	0.53111
2786	2498	2785	0.0006364	2.99553	0.00571054
2787	2785	2777	0.000447199	2.99553	0.00401281
2825	2830	2824	0.006559674	12.768	1.06937
2828	2827	2592	0.095639319	19.2704	35.5155
2829	2824	2827	0.001014803	12.768	0.165435
2831	2830	3691	23.74230005	1.39602	46.2707
2833	2832	2993	0.016968691	18.8843	6.05132
2839	2838	2673	0.000516001	6.58889	0.0224014
2840	2838	2671	0.0005332	1.10873	0.000655453
2846	2845	2701	0.000326799	12.0127	0.0471587
2848	2847	2838	0.000292399	7.69761	0.0173256
2849	2582	2847	0.000688	0.360054	8.92E-05
2850	2845	2851	0.000275199	3.46549	0.00330504
2852	2851	2830	0.001100794	14.164	0.22084
2854	2847	2853	0.000705199	10.6985	0.0807156
2855	2853	2851	0.000498799	10.6985	0.0570915
2857	2856	2764	0.000516	0.797738	0.000328375
2860	2856	2859	0.706222291	9.99781	70.5913
2862	2859	2861	0.530581369	9.99781	53.0349
2864	2861	2863	0.27260939	9.99781	27.249
2866	2863	2865	0.107206952	9.99781	10.716
2868	2865	2867	0.165225361	9.99781	16.5153
2876	2764	2867	2147.637139	0.178406	68.3565
2878	2867	2877	0.001943597	5.59596	0.0608633
2881	2883	2880	0.051771136	8.68596	3.90592
2884	2883	2877	19.26100553	5.6005	604.133
2887	2885	2886	0.0002064	14.2865	0.0421271
2888	2886	2883	0.000825598	14.2865	0.168508
2890	2885	2889	0.0005504	0.589021	0.000190959
2893	2889	2894	0.000859999	0.589021	0.000298373
2895	2894	2892	0.0010148	9.27498	0.0872984
2897	2880	2896	0.447096522	8.68596	33.7316
2899	2896	2898	0.117984011	8.68596	8.90141
2900	2898	2894	0.635481839	8.68596	47.9445
2901	2892	1772	0.000223599	9.27498	0.0192352
2910	2767	2927	0.0004128	3.99448	0.00658659
2914	2909	2913	0.0009116	16.7754	0.256537
2916	2913	2915	0.000567598	16.7754	0.15973
2918	2877	2909	0.0003956	11.1965	0.049593
2921	2920	2909	0.001960795	5.57893	0.0610287
2926	2867	2920	0.0004128	4.58028	0.00866012
2928	2927	2920	68.54553851	0.998634	68.3584
2930	2724	2946	0.0004816	3.69485	0.00657476
2932	2929	2931	0.030855586	4.66321	0.670971
2934	2931	2933	3.890202249	4.66321	84.5945
2936	2731	2944	0.0001032	0.508794	2.67E-05
2938	2935	2937	0.835575517	9.98315	83.2762
2940	2939	2929	0.270582997	4.66321	5.88397
2942	2941	2935	0.000653601	9.98315	0.06514
2943	2939	2941	0.000516	5.23402	0.0141358
2945	2944	2990	25.77014614	4.20372	455.391
2948	2946	2944	0.000395599	3.69485	0.00540069
2950	2764	2767	0.000447201	0.619332	0.000171534
2953	2952	2957	0.001926409	15.8324	0.482883
2955	2954	2939	0.503188381	9.89721	49.2897
2956	2952	2954	0.804585581	7.1036	40.6003
2958	2957	3013	1.723772553	4.74915	38.8787
2960	2959	2704	0.000653602	12.1913	0.0971434
2962	2959	2961	0.001170001	2.79362	0.00913105
2963	2961	2954	0.002115599	2.79362	0.0165108
2967	2966	2498	0.001083599	2.99553	0.00972335
2969	2512	2968	0.000550401	4.17943	0.0096142
2971	2968	2974	0.000567601	4.17943	0.00991464
2972	2970	2966	0.000378399	1.60935	0.000980056
2975	2974	2970	0.000705199	1.60935	0.00182647
2977	2974	2976	0.000206401	2.57008	0.00136334
2978	2976	2731	0.0002408	2.57008	0.00159056
2981	2775	2980	0.533750756	5.64362	17.0002
2983	2980	2982	0.257545524	5.64362	8.20294
2985	2982	2984	0.646436773	5.64362	20.5893
2986	2984	2987	0.940040191	5.64362	29.9407
2991	2990	2952	0.000739599	22.9361	0.389077
2992	2781	2990	0.0002064	18.7321	0.0724241
2994	2993	2847	0.014857752	18.0361	4.83324
2999	2996	3007	0.002562799	0.848205	0.00184381
3002	3000	3001	0.424749387	2.96566	3.73573
3004	3001	3003	0.020965899	2.96566	0.184398
3006	3003	3005	0.137778376	2.96566	1.21178
3008	3007	3011	1.773566731	3.81387	25.7976
3012	3011	3021	0.383832796	3.81387	5.58308
3014	3013	2941	2.240908309	4.74915	50.5424
3022	3021	3039	0.001049197	3.81387	0.0152612
3025	2987	3028	0.056660116	5.64362	1.80465
3027	3024	3026	0.000189201	8.63943	0.0141219
3029	3028	3024	0.0007568	8.63943	0.0564874
3035	3034	2998	0.001238402	23.5364	0.686028
3036	3032	3037	0.000275199	19.7226	0.107047
3038	3037	3034	0.000533203	21.5396	0.247382
3040	3039	3034	0.000791198	1.99679	0.00315464
3041	3039	3037	0.000636398	1.81709	0.00210127
3043	3026	3032	0.0002064	19.7226	0.0802855
3045	3044	3026	0.25724812	11.0831	31.5991
3046	2957	3044	0.571662308	11.0831	70.2202
3048	2998	3047	0.001806008	23.5364	1.00046
3050	3047	3330	0.001135202	23.5364	0.628859
3052	3049	3051	0.000928802	23.5364	0.514521
3054	3051	3053	0.00237361	23.5364	1.31489
3056	3053	3055	0.00237361	23.5364	1.31489
3058	3055	3068	0.002150003	23.5364	1.19102
3071	3068	3070	0.000928802	23.5364	0.514521
3073	3070	3072	0.000344	23.5364	0.190563
3074	3072	3367	0.153190979	23.5364	84.862
3076	2206	3090	0.047575726	19.7484	18.5545
3078	3075	3175	0.013164164	6.04905	0.48169
3080	3077	3147	0.027483066	37.6214	38.8987
3082	3079	3081	0.012702247	3.81675	0.185041
3084	3081	3083	2.971118834	4.39256	57.3265
3086	3083	3301	0.003233296	4.39256	0.0623851
3088	3087	3085	0.016397381	0.921469	0.0139231
3091	3090	3114	0.019399765	5.14694	0.513919
3093	3090	3092	0.000963196	14.6015	0.205357
3095	3092	3099	0.002407992	14.6015	0.513393
3100	3099	3094	0.000928797	14.6015	0.198023
3105	1728	3106	0.002110927	26.3309	1.46354
3107	3106	3104	0.006738772	5.62748	0.213407
3109	3108	3104	0.001307194	10.3112	0.138982
3110	3094	3108	0.000619196	14.6015	0.132015
3112	3111	3243	0.0064666	8.29712	0.445175
3113	3108	3111	0.001307198	4.29032	0.0240614
3115	3114	3116	0.011547458	1.57703	0.0287188
3117	3116	3111	0.033025867	4.0068	0.530212
3119	3114	3118	0.000946003	3.56991	0.0120561
3120	3118	3121	0.000877203	3.56991	0.0111793
3122	3121	3167	0.001341591	1.14014	0.00174396
3123	3121	3116	0.000928803	2.42977	0.00548345
3125	3104	3124	0.001380233	15.9386	0.350633
3127	3124	3126	0.047683128	19.0209	17.2515
3132	3126	3131	0.073512146	19.0209	26.5963
3133	3131	2832	0.010927083	19.0209	3.95336
3134	2832	3000	0.000842794	0.136611	1.57E-05
3136	3135	3079	0.004618989	3.81675	0.0672875
3138	3135	3137	0.0004472	8.46302	0.0320297
3140	3149	3135	0.000808006	11.1557	0.100556
3141	3139	3000	0.0003096	2.82904	0.00247787
3143	3142	3139	0.001444799	2.82904	0.0115634
3145	3142	3144	0.000412801	14.8755	0.0913449
3146	3144	2885	0.001857606	14.8755	0.411052
3148	3147	3154	0.009468955	8.76117	0.726819
3150	3149	3142	0.000636396	17.7046	0.19948
3152	3147	3151	0.000378401	28.8602	0.315174
3153	3151	3149	0.000378401	28.8602	0.315174
3155	3154	3135	0.003233306	1.12407	0.00408539
3157	3156	1773	0.105770504	2.02379	0.433207
3159	3156	3158	0.003407281	7.25123	0.179156
3163	3158	3162	0.009370005	7.25123	0.492678
3165	3162	3164	0.018598055	7.25123	0.977892
3166	3164	1739	0.004685002	7.25123	0.246339
3168	1728	3167	0.001375997	27.3341	1.02808
3170	3167	3169	0.0007052	28.4742	0.571762
3172	3169	3185	0.001754405	15.6481	0.429589
3174	3171	3173	0.000601998	16.1868	0.157731
3176	3175	3077	0.005080906	37.6214	7.19136
3177	3173	3228	0.000412802	14.8315	0.0908054
3179	3178	3175	0.000309601	31.5723	0.308613
3181	3173	3180	0.000326798	13.6427	0.0608247
3183	3180	3182	0.000533196	13.6427	0.0992402
3184	3182	3178	0.000429997	13.6427	0.0800324
3186	3185	3220	0.001995201	7.90249	0.124599
3188	3169	3187	0.0002752	4.025	0.00445842
3190	3187	3189	0.000344001	4.025	0.00557303
3192	3189	3191	0.000567602	4.025	0.0091955
3194	3191	3193	0.000791204	4.025	0.012818
3196	3195	3193	0.000223599	1.48431	0.000492627
3198	3204	3195	0.000412797	1.48431	0.000909465
3200	3197	3199	0.000567598	12.2874	0.085696
3202	3199	3201	0.000189199	12.2874	0.0285653
3203	3201	3173	0.000189199	12.2874	0.0285653
3205	3204	3207	0.001479199	7.31677	0.0791891
3206	3169	3204	0.000395599	8.80109	0.0306428
3208	3207	3218	0.002700384	12.8261	0.444237
3210	3193	3209	0.0002924	5.5093	0.00887503
3212	3209	3211	0.0002236	5.5093	0.00678679
3214	3211	3213	0.001685597	5.5093	0.0511619
3216	3213	3215	0.0001548	5.5093	0.00469855
3217	3215	3207	0.0002064	5.5093	0.00626473
3219	3218	3197	0.000326798	12.2874	0.0493401
3221	3220	3171	0.0004816	8.44118	0.0343157
3222	3218	3220	0.000412799	0.53874	0.000119811
3224	3185	3223	0.0003612	7.74564	0.0216702
3226	3223	3225	0.001754398	7.74564	0.105255
3227	3225	3171	0.0005332	7.74564	0.0319893
3229	3228	3178	0.000464398	17.9297	0.149292
3230	2642	3228	0.000584801	3.09818	0.00561334
3231	3234	2642	0.001032002	19.8692	0.407419
3235	3106	3234	0.001307202	20.7034	0.560307
3237	3236	3075	0.010623704	6.04905	0.388732
3238	3234	3236	0.000739599	0.834212	0.000514694
3241	3240	3236	0.000344001	3.66667	0.00462491
3242	3240	3124	0.000825598	3.08228	0.00784355
3244	3243	3236	0.007159464	1.54816	0.0171598
3245	3243	3240	0.000275199	6.74896	0.0125349
3246	3154	3137	0.0006192	7.63711	0.0361151
3248	3137	3282	0.000842798	16.1002	0.218467
3250	2933	3249	0.0001892	5.66152	0.0060644
3252	3249	3251	0.0002408	5.66152	0.00771832
3253	3251	1802	0.004176013	15.6448	1.02212
3255	3254	1802	0.0002752	5.27912	0.00766959
3256	2937	3251	0.078343395	9.98315	7.80796
3257	2915	3254	0.001186799	16.7754	0.333982
3260	3254	3259	0.0013072	11.4964	0.172769
3262	3259	3261	0.0002236	11.4964	0.0295526
3264	3261	3263	0.0002236	11.4964	0.0295526
3266	3087	3267	0.006004724	2.00499	0.0241389
3268	3267	3269	0.006697541	13.5014	1.22088
3270	3269	3265	0.010161813	7.31334	0.543504
3271	3263	3267	0.0003096	11.4964	0.040919
3274	3273	3247	0.020785492	6.68525	0.928957
3276	3269	3275	0.003695198	6.18791	0.14149
3278	3275	3277	0.003926145	6.18791	0.150333
3279	3277	3273	0.003926145	6.18791	0.150333
3280	3265	3247	0.015473664	7.31334	0.827608
3283	3282	3306	0.000911593	14.5261	0.192353
3285	3282	3284	0.000291998	1.57413	0.000723538
3286	3284	3081	0.000447196	1.57413	0.0011081
3288	3081	3287	0.0005848	0.998315	0.000582831
3290	3287	3289	0.0003096	0.998315	0.000308558
3292	3289	3291	0.001892001	0.998315	0.00188563
3294	3291	2933	0.0003096	0.998315	0.000308558
3296	3295	3299	0.001017004	2.11354	0.00454301
3298	1004	3297	0.002786002	0.492889	0.00067683
3302	3301	3707	0.00993084	8.8883	0.784555
3304	3303	3301	0.000825597	4.49574	0.0166867
3305	3308	3303	0.000705201	4.49574	0.0142533
3307	3306	3700	1.402134157	6.3863	57.1858
3309	3308	3295	0.000825601	3.64401	0.010963
3310	3306	3308	0.000481599	8.13976	0.0319087
3316	3299	3314	0.001995195	1.17694	0.00276372
3329	3328	3049	0.001393204	23.5364	0.771782
3331	3330	3328	0.000481602	23.5364	0.266789
3341	3247	3340	0.004619026	13.9987	0.905161
3343	3340	3344	0.005311905	13.9987	1.04094
3345	3344	3348	0.001616637	10.7255	0.185972
3347	3346	3350	0.004157094	7.30261	0.22169
3349	3348	3346	0.001385696	9.91373	0.136189
3351	3350	3342	0.015935663	13.9987	3.12281
3353	3344	3352	0.00946895	3.2733	0.101455
3355	3352	3359	0.008314187	3.2733	0.0890823
3357	3354	3356	0.003695204	4.08501	0.061663
3358	3356	3350	0.00392614	6.69598	0.176033
3360	3359	3354	0.0069285	4.08501	0.115618
3361	3348	3359	0.006928498	0.811717	0.00456508
3362	3346	3356	0.00669755	2.61093	0.0456569
3364	3342	3363	0.015970109	13.9987	3.12956
3366	3363	3369	0.004523029	13.9987	0.886349
3368	3367	1848	0.000206399	18.0746	0.0674288
3370	3369	3373	0.028175925	7.17066	1.44876
3372	3371	3365	0.019168789	7.5789	1.10105
3374	3373	3371	0.003464236	2.58281	0.0231096
3376	3369	3375	0.011778456	6.82793	0.549119
3377	3375	3367	0.018937926	6.82793	0.882898
3379	3378	3371	0.000258	4.9961	0.00643994
3381	3383	3378	0.0001892	4.9961	0.00472262
3382	3386	3380	0.000378401	0.408252	6.31E-05
3384	3380	3383	0.000275201	0.408252	4.59E-05
3385	3373	3383	0.000567602	4.58785	0.0119471
3387	3367	3386	0.000189201	12.2899	0.0285773
3388	3386	1848	0.000275201	11.8817	0.0388514
3390	3365	3402	0.023556868	7.5789	1.3531
3392	3389	3413	0.011778454	3.97562	0.186165
3394	3391	3393	0.0001892	7.5789	0.0108676
3396	3393	3395	0.216942194	7.5789	12.4611
3398	3395	3397	0.0002924	7.5789	0.0167954
3403	3402	3389	0.011778454	3.97562	0.186165
3405	3402	3415	0.030716379	3.60328	0.39881
3407	3404	3406	0.012702287	0.0540103	3.71E-05
3408	3406	3409	0.015935587	0.0540103	4.65E-05
3410	3409	3391	0.007852298	0.753659	0.00446012
3412	3411	3404	0.024480749	0.0540103	7.14E-05
3414	3413	3391	0.008776067	1.95748	0.0336275
3416	3415	3411	0.011085569	0.477857	0.00253136
3417	3411	3424	0.000206399	0.423847	3.71E-05
3419	3413	3418	0.000258001	2.01814	0.00105081
3420	3415	3421	0.000189201	3.12543	0.00184817
3422	3421	3391	0.0002236	4.86778	0.00529827
3423	3418	3421	0.006697555	2.01814	0.0272784
3425	3424	3409	0.0002408	0.69965	0.000117874
3426	3421	3424	0.009468931	0.275803	0.000720276
3429	3428	1727	0.142085797	55.6614	440.209
3432	1053	3431	0.0002064	6.43624	0.00855017
3433	3431	3472	0.018449565	24.5341	11.1052
3436	588	3447	0.036608091	56.1802	115.543
3439	3438	3455	0.0002064	0.51881	5.56E-05
3443	3438	3442	0.0001548	22.8383	0.080742
3445	3442	3444	0.000412801	22.8383	0.215312
3446	3444	3428	0.0001892	22.8383	0.0986847
3448	3447	3438	0.000533203	23.3571	0.290891
3450	3447	3449	0.0004644	32.8231	0.500324
3451	3449	3428	0.000172	32.8231	0.185305
3456	994	3455	0.0001548	25.0922	0.0974648
3457	3455	3431	0.000481601	25.611	0.315893
3458	3431	996	0.000172	7.51324	0.0097092
3463	3297	3462	0.000842802	0.492889	0.00020475
3465	3462	3464	0.001616801	0.492889	0.000392785
3468	3466	3476	0.000705199	0.450976	0.000143423
3470	3467	3469	32.4199664	0.500744	8.12913
3473	3472	597	0.053824366	25.9786	36.3254
3474	998	3467	0.000172	0.500744	4.31E-05
3475	3469	3472	0.000739595	1.44461	0.00154346
3477	3476	3469	0.000670801	0.943861	0.000597599
3478	3464	3476	3.532368206	0.492889	0.858152
3480	3479	1006	3.188220504	3.9851	50.6322
3482	3479	3481	0.000774002	0.450976	0.000157416
3485	3481	3484	0.003216398	0.450976	0.000654149
3487	3484	3486	0.0003784	0.450976	7.70E-05
3489	3486	3488	0.0003096	0.450976	6.30E-05
3490	3488	3466	0.000344	0.450976	7.00E-05
3491	595	600	0.000412801	2.62912	0.00285339
3493	238	588	0.037647016	57.3074	123.638
3494	240	597	0.035882892	6.98118	1.74882
3497	3496	238	0.02416595	28.0381	18.9977
3499	3498	240	0.024000307	27.3039	17.8923
3503	3501	3502	0.000655022	55.342	2.00616
3505	3502	3507	0.003475911	55.342	10.6458
3506	3504	3516	0.067531949	28.2409	53.86
3508	3507	3504	0.003475914	28.2409	2.77221
3510	3507	3509	0.004303527	27.1011	3.16081
3512	3509	3511	0.003475923	27.1011	2.55296
3513	3511	3514	0.069352902	27.1011	50.9376
3515	3514	3496	0.171947555	28.0381	135.174
3517	3516	3498	0.031945279	27.3039	23.8153
3518	3516	3514	0.021871615	0.936939	0.0192001
3520	3537	242	0.203170888	16.4067	54.6895
3522	3521	3519	0.0008084	7.74952	0.0485485
3524	3523	3521	0.000464401	7.74952	0.0278896
3525	614	3523	0.000343999	7.74952	0.0206589
3527	614	3526	0.0021328	16.3058	0.567067
3529	3526	3530	0.001066402	16.3058	0.283534
3531	3530	3528	0.739077851	26.0004	499.632
3533	3535	244	2.640972321	4.59344	55.7237
3534	3532	3530	0.0003096	9.69459	0.0290978
3536	3535	3532	0.000516	9.69459	0.0484963
3538	3519	3537	0.0006536	7.74952	0.039252
3539	3542	614	0.000172	7.04578	0.00853859
3541	3537	3540	0.000189201	14.288	0.0386248
3543	3542	3537	0.0002752	22.9452	0.144888
3544	593	3542	0.020850731	29.991	18.7544
3546	3540	3545	0.002545612	14.288	0.519679
3547	3545	3535	0.000378402	14.288	0.0772496
3549	3528	3548	0.004090865	26.0004	2.76551
3551	3548	3550	0.048609155	26.0004	32.8608
3552	1109	3553	0.005374108	49.2471	13.0337
3554	3553	3550	0.053342701	70.0155	261.495
3556	3555	254	0.23797437	10.1419	24.4776
3557	3555	3553	0.000860002	20.7676	0.370913
3559	3558	252	0.044685158	8.91216	3.54919
3561	3560	3558	0.044685158	8.91216	3.54919
3563	3562	3560	0.0332541	8.91216	2.64126
3565	3566	3562	0.01662705	8.91216	1.32063
3567	3566	3564	0.04884164	10.8606	5.761
3568	1109	3566	0.000567601	19.7727	0.221909
3570	3564	3569	0.027018727	10.8606	3.18693
3572	3569	3571	0.060272584	10.8606	7.10931
3574	3571	3573	0.024940351	10.8606	2.94178
3576	3573	3575	0.039488987	10.8606	4.65783
3578	3575	3577	0.033253857	10.8606	3.92238
3580	3577	3579	0.023901205	10.8606	2.81921
3582	3579	3581	0.030136335	10.8606	3.55466
3584	3581	3583	0.069625237	10.8606	8.21248
3585	256	3583	0.0003612	5.14132	0.00954767
3587	3583	3586	0.076900665	16.0018	19.691
3589	3586	3588	0.193290492	16.0018	49.4935
3590	3588	1147	0.1673104	16.0018	42.8411
3592	260	3591	0.599222575	5.00059	14.9841
3594	3591	3593	0.414846091	5.00059	10.3736
3595	3593	675	0.036371604	4.99794	0.908541
3596	3593	1147	0.138282906	0.00265962	9.78E-07
3598	1147	3599	0.005470003	73.1468	29.267
3600	3599	3597	1.099697526	10.4165	119.321
3602	3599	3601	0.000309601	62.7301	1.2183
3604	3601	3614	0.002563007	62.7301	10.0856
3609	675	3608	0.018368196	45.0098	37.2118
3611	3608	3610	0.001266599	45.0098	2.56598
3613	3610	3612	0.006059988	59.7273	21.6181
3615	3614	3603	0.009071582	48.0126	20.9119
3616	3614	3610	0.000533199	14.7176	0.115495
3620	3597	3629	0.858668373	10.4165	93.1685
3622	3619	3635	0.067547362	4.65825	1.46573
3626	3623	3625	0.000804002	178.409	25.5912
3628	3625	3627	0.002920733	214.172	133.973
3630	3629	3619	0.04780294	4.65825	1.03729
3632	3612	3631	0.001662999	59.7273	5.9325
3634	3631	3644	23.92644177	2.71218	176.001
3637	3633	3635	0.000688001	4.34281	0.0129757
3639	3635	3638	1.279029191	9.00107	103.626
3640	3638	3623	0.000751001	82.3933	5.09829
3641	3603	3649	0.023884985	48.0126	55.0599
3643	3642	3638	0.010358927	100.024	103.639
3645	3644	3633	0.000343999	5.15838	0.00915344
3646	3629	3644	0.074821771	5.75824	2.48089
3647	3644	3642	0.000877198	3.31204	0.00962252
3648	3633	3642	0.000705199	0.815587	0.000469086
3650	3649	3642	0.011576954	105.028	127.704
3651	3631	3649	0.014860024	57.0151	48.3058
3653	3642	3652	0.553448491	9.1314	46.1479
3654	3652	3655	0.866264858	9.1314	72.2313
3656	3655	3625	0.01247034	35.7627	15.9492
3657	3638	3655	0.020783795	26.6312	14.7403
3659	3550	3658	0.014533688	96.0156	133.986
3661	3658	3660	0.009277985	96.0156	85.5337
3662	3660	3623	0.00144801	96.0156	13.3492
3664	3663	2314	0.033213781	13.0999	5.69973
3665	3663	2294	0.002184392	7.65293	0.127934
3667	2103	2105	0.049999922	15.7186	12.3537
3669	2927	3028	0.014719251	2.99585	0.132107
3672	353	362	0.217542504	6.43819	9.0172
3674	3673	353	0.000292401	15.7195	0.0722531
3676	3675	3673	0.001539778	28.9053	1.28651
3678	3677	1004	5075.710313	0.331696	558.441
3680	3679	1751	0.027557045	0.604932	0.0100843
3681	3677	3679	0.043766958	0.604932	0.0160162
3685	2823	3684	0.0001548	1.66273	0.000427971
3687	3684	3686	0.001032001	2.92646	0.00883823
3689	3686	3688	0.0001548	2.92646	0.00132573
3690	3688	3087	0.0002236	2.92646	0.00191495
3692	3691	3715	0.000206401	0.132289	3.61E-06
3694	3691	3693	0.000206401	1.26373	0.000329625
3696	3693	3695	0.001083604	1.26373	0.00173053
3698	3695	3697	0.000137601	1.26373	0.00021975
3699	3697	3684	0.000361202	1.26373	0.000576844
3701	3314	3700	0.000326801	0.6796	0.000150935
3703	3085	3702	0.004849941	0.921469	0.00411811
3704	3700	3702	0.000619199	7.06583	0.0309141
3706	3705	1803	0.022424846	37.7994	32.0405
3708	3702	3707	0.012009395	7.98729	0.766161
3710	3707	3709	0.000447199	16.8756	0.127356
3712	3709	3711	0.000670795	16.8756	0.191033
3713	3711	3705	2.691330808	16.8756	766.453
3716	3715	2823	0.0008772	1.66273	0.00242517
3718	3717	3715	0.0002236	1.53044	0.000523727
3719	3295	3717	0.002081203	1.53044	0.00487469
3764	1458	1469	0.000963205	17.5359	0.296193
3767	3005	3007	0.104831314	2.96566	0.922006
3775	3774	2767	0.000584801	3.37515	0.00666184
3776	3774	2856	0.000498799	3.31428	0.00547903
3832	1640	3833	0.107796492	0.99457	0.106629
3834	3833	1662	0.153184062	0.99457	0.151525
3838	1996	2005	0.312819263	17.3349	94.0018
3874	3873	1868	0.010131289	23.8715	5.7733
3875	3397	3873	14.14348688	7.5789	812.398
3876	1864	3873	0.000377999	3.64024	0.005009
3878	3877	647	0.014725489	30.6209	13.8072
3879	1107	3877	0.113488013	34.0779	131.794
3880	3877	1109	0.01443003	69.0204	68.742
3882	3881	670	0.001317505	23.6196	0.735017
3883	3881	1147	0.044316926	57.1422	144.705
3884	1048	3881	0.013299974	47.9157	30.5356
3900	2213	2221	0.016166602	11.9385	2.30419
3906	2993	2996	0.0010492	0.848205	0.000754849
3908	3907	3948	0.011135258	10.7368	1.28366
3917	63	3916	0.006930505	1.07162	0.00795878
3923	3922	90	0.084044818	9.36827	7.37615
3935	3916	3934	0.000223599	7.08091	0.0112111
3937	3936	3971	6.95737334	0.99226	6.85009
3939	3938	65	0.009034435	9.13267	0.753523
3940	3936	3941	0.010550061	15.8327	2.64463
3942	3941	3961	0.004168978	17.3182	1.25036
3943	3934	3941	2.625368686	1.48544	5.79296
3945	3944	3916	0.000309601	6.00927	0.0111801
3947	3946	3944	0.000774001	6.00927	0.0279502
3949	3948	85	0.002115999	4.72752	0.0472914
3950	3948	3946	0.022647964	6.00927	0.817848
3952	3959	65	0.001444803	0.410214	0.000243125
3954	3953	3955	0.000395601	4.26573	0.00719853
3956	3955	146	0.000687999	9.68635	0.0645518
3957	3951	3953	0.000395599	3.34473	0.00442565
3958	3951	3955	0.000395599	5.42061	0.0116239
3960	3959	3951	0.0005676	8.76533	0.0436093
3962	3961	3938	0.0003612	8.14262	0.0239484
3964	3961	3963	0.007826996	9.17554	0.658959
3966	3963	3965	0.0010492	9.17554	0.0883327
3967	3965	3959	0.00043	9.17554	0.0362019
3972	3971	21	0.012846979	7.25141	0.675532
3973	71	3971	0.018717966	6.25915	0.733313
3974	104	690	58.52888297	0.891653	46.5331
3975	276	697	4.98933483	2.95884	43.6803
4095	2342	2296	0.033050203	1.51275	0.0756325
4107	1643	1651	0.05836609	3.00314	0.526395
4113	2389	4112	0.006006001	9.89236	0.58774
4115	4112	4114	0.001772002	9.89236	0.173406
4117	4114	4116	0.005730002	9.89236	0.560731
4118	4116	2399	0.000606	9.89236	0.0593024
4128	780	423	0	0	0
4215	3299	3677	9.99999E-05	0.936629	8.77E-05
4217	3314	3273	0.024300971	0.497339	0.00601075